LSD/praticas/P2/Parte4/simulation/qsim/PEnc4_2Demo.msim.vcd
$comment
	File created using the following command:
		vcd file PEnc4_2Demo.msim.vcd -direction
$end
$date
	Tue Feb 26 13:20:37 2019
$end
$version
	ModelSim Version 10.5b
$end
$timescale
	1ps
$end

$scope module penc4_2_vhd_vec_tst $end
$var wire 1 ! inputs [3] $end
$var wire 1 " inputs [2] $end
$var wire 1 # inputs [1] $end
$var wire 1 $ inputs [0] $end
$var wire 1 % outputs [1] $end
$var wire 1 & outputs [0] $end
$var wire 1 ' valid $end

$scope module i1 $end
$var wire 1 ( gnd $end
$var wire 1 ) vcc $end
$var wire 1 * unknown $end
$var wire 1 + devoe $end
$var wire 1 , devclrn $end
$var wire 1 - devpor $end
$var wire 1 . ww_devoe $end
$var wire 1 / ww_devclrn $end
$var wire 1 0 ww_devpor $end
$var wire 1 1 ww_inputs [3] $end
$var wire 1 2 ww_inputs [2] $end
$var wire 1 3 ww_inputs [1] $end
$var wire 1 4 ww_inputs [0] $end
$var wire 1 5 ww_outputs [1] $end
$var wire 1 6 ww_outputs [0] $end
$var wire 1 7 ww_valid $end
$var wire 1 8 \outputs[0]~output_o\ $end
$var wire 1 9 \outputs[1]~output_o\ $end
$var wire 1 : \valid~output_o\ $end
$var wire 1 ; \inputs[3]~input_o\ $end
$var wire 1 < \inputs[1]~input_o\ $end
$var wire 1 = \inputs[2]~input_o\ $end
$var wire 1 > \outputs~0_combout\ $end
$var wire 1 ? \Equal0~0_combout\ $end
$var wire 1 @ \inputs[0]~input_o\ $end
$var wire 1 A \Equal0~1_combout\ $end
$var wire 1 B \ALT_INV_Equal0~0_combout\ $end
$var wire 1 C \ALT_INV_Equal0~1_combout\ $end
$upscope $end
$upscope $end
$enddefinitions $end
#0
$dumpvars
1'
0(
1)
x*
1+
1,
1-
1.
1/
10
17
18
19
1:
1;
0<
1=
1>
0?
1@
0A
1B
1C
1!
1"
0#
1$
11
12
03
14
15
16
1%
1&
$end
#30000
0!
0"
1#
13
02
01
0;
0=
1<
1?
0B
09
05
0%
#60000
1"
0#
03
12
1=
0<
0>
0?
1B
08
19
06
15
0&
1%
#90000
1#
0$
04
13
1<
0@
#120000
0"
1!
02
11
1;
0=
1>
18
16
1&
#150000
0!
0#
03
01
0;
0<
0>
1?
1A
0C
0B
08
09
0:
06
05
07
0&
0%
0'
#180000
1#
1"
1$
14
13
12
1=
1<
1@
0?
0A
1C
1B
19
1:
15
17
1%
1'
#210000
0#
0"
0$
04
03
02
0=
0<
0@
1?
1A
0C
0B
09
0:
05
07
0%
0'
#240000
1#
13
1<
1>
0A
1C
18
1:
16
17
1&
1'
#270000
1$
14
1@
#300000
0$
0#
1"
1!
04
03
12
11
1;
1=
0<
0@
0?
1B
19
15
1%
#330000
1$
0"
0!
14
02
01
0;
0=
1@
0>
1?
0B
08
09
06
05
0&
0%
#390000
0$
04
0@
1A
0C
0:
07
0'
#420000
1"
1#
13
12
1=
1<
0?
0A
1C
1B
19
1:
15
17
1%
1'
#450000
0"
1$
14
02
0=
1@
1>
1?
0B
18
09
16
05
1&
0%
#480000
1"
12
1=
0>
0?
1B
08
19
06
15
0&
1%
#510000
0"
0$
1!
04
02
11
1;
0=
0@
1>
18
16
1&
#540000
1$
0#
14
03
0<
1@
#570000
1#
1"
13
12
1=
1<
#600000
0"
0$
0!
04
02
01
0;
0=
0@
1?
0B
09
05
0%
#630000
1"
1!
0#
03
12
11
1;
1=
0<
0?
1B
19
15
1%
#660000
0!
01
0;
0>
08
06
0&
#720000
1$
14
1@
#750000
0"
1#
13
02
0=
1<
1>
1?
0B
18
09
16
05
1&
0%
#780000
1"
0#
03
12
1=
0<
0>
0?
1B
08
19
06
15
0&
1%
#810000
0$
1!
04
11
1;
0@
1>
18
16
1&
#840000
0!
1#
13
01
0;
1<
0>
08
06
0&
#870000
1!
1$
14
11
1;
1@
1>
18
16
1&
#900000
0!
0$
0#
04
03
01
0;
0<
0@
0>
08
06
0&
#930000
1!
1$
1#
0"
14
13
02
11
1;
0=
1<
1@
1>
18
16
1&
#960000
1"
12
1=
#990000
0!
0$
0#
04
03
01
0;
0<
0@
0>
08
06
0&
