LSD/praticas/P4/Parte3/simulation/qsim/Counter_Demo.msim.vcd
$comment
	File created using the following command:
		vcd file Counter_Demo.msim.vcd -direction
$end
$date
	Tue Mar 26 14:30:48 2019
$end
$version
	ModelSim Version 10.5b
$end
$timescale
	1ps
$end

$scope module counterupdown4_vhd_vec_tst $end
$var wire 1 ! clk $end
$var wire 1 " count [3] $end
$var wire 1 # count [2] $end
$var wire 1 $ count [1] $end
$var wire 1 % count [0] $end
$var wire 1 & reset $end
$var wire 1 ' UpDown $end

$scope module i1 $end
$var wire 1 ( gnd $end
$var wire 1 ) vcc $end
$var wire 1 * unknown $end
$var wire 1 + devoe $end
$var wire 1 , devclrn $end
$var wire 1 - devpor $end
$var wire 1 . ww_devoe $end
$var wire 1 / ww_devclrn $end
$var wire 1 0 ww_devpor $end
$var wire 1 1 ww_clk $end
$var wire 1 2 ww_reset $end
$var wire 1 3 ww_UpDown $end
$var wire 1 4 ww_count [3] $end
$var wire 1 5 ww_count [2] $end
$var wire 1 6 ww_count [1] $end
$var wire 1 7 ww_count [0] $end
$var wire 1 8 \count[0]~output_o\ $end
$var wire 1 9 \count[1]~output_o\ $end
$var wire 1 : \count[2]~output_o\ $end
$var wire 1 ; \count[3]~output_o\ $end
$var wire 1 < \clk~input_o\ $end
$var wire 1 = \reset~input_o\ $end
$var wire 1 > \s_count~3_combout\ $end
$var wire 1 ? \UpDown~input_o\ $end
$var wire 1 @ \s_count[1]~5_cout\ $end
$var wire 1 A \s_count[1]~6_combout\ $end
$var wire 1 B \s_count[1]~7\ $end
$var wire 1 C \s_count[2]~8_combout\ $end
$var wire 1 D \s_count[2]~9\ $end
$var wire 1 E \s_count[3]~10_combout\ $end
$var wire 1 F s_count [3] $end
$var wire 1 G s_count [2] $end
$var wire 1 H s_count [1] $end
$var wire 1 I s_count [0] $end
$upscope $end
$upscope $end
$enddefinitions $end
#0
$dumpvars
0!
0&
1'
0(
1)
x*
1+
1,
1-
1.
1/
10
01
02
13
08
09
0:
0;
0<
0=
1>
1?
0@
0A
1B
0C
0D
0E
04
05
06
07
0F
0G
0H
0I
0"
0#
0$
0%
$end
#5000
1!
0'
11
03
0?
1<
1I
1A
1C
1E
0>
1@
0A
0B
18
0C
1D
17
1%
0E
#10000
0!
1'
01
13
1?
0<
1A
1B
1C
0D
1E
0E
0C
#15000
1!
11
1<
0I
1H
0A
0B
1>
0@
1A
1B
1C
19
08
0C
16
07
0%
1$
#20000
0!
01
0<
#25000
1!
11
1<
1I
0>
1@
0A
0B
18
1C
17
1%
#30000
0!
0'
01
03
0?
0<
1A
0C
1D
1E
0E
#35000
1!
1'
11
13
1?
1<
0I
0A
1C
0D
1E
0E
1>
0@
1A
1B
08
0C
07
0%
#40000
0!
0'
01
03
0?
0<
0A
0B
1C
1E
0C
1D
0E
#45000
1!
1'
11
13
1?
1<
1I
0H
1A
1B
1C
0D
1E
0E
0C
0A
0>
1@
1A
09
18
06
17
1%
0$
#50000
0!
0'
01
03
0?
0<
0A
0B
1C
1E
0C
1D
0E
#55000
1!
11
1<
0I
1>
0@
1A
1B
08
1C
0D
07
0%
1E
#60000
0!
1'
01
13
1?
0<
0A
0C
0E
#65000
1!
0'
11
03
0?
1<
1I
1A
1C
1E
0>
1@
0A
0B
18
0C
1D
17
1%
0E
#70000
0!
01
0<
#75000
1!
11
1<
0I
1>
0@
1A
1B
08
1C
0D
07
0%
1E
#80000
0!
01
0<
#85000
1!
1'
11
13
1?
1<
1I
1H
1G
1F
0A
0C
0E
1E
1C
1A
0>
1@
0A
0B
1;
1:
19
18
0C
1D
14
15
16
17
1%
1$
1#
1"
0E
#90000
0!
0'
01
03
0?
0<
1A
1C
1E
#95000
1!
11
1<
0I
1>
0@
0A
08
07
0%
#100000
0!
01
0<
#105000
1!
11
1<
1I
0H
1A
1B
0>
1@
0A
0B
0C
09
18
1C
06
17
1%
0$
#110000
0!
1'
01
13
1?
0<
1A
1B
0C
0E
1C
0D
1E
#115000
1!
11
1<
0I
1H
0A
0B
1>
0@
1A
1B
0C
1D
19
08
0E
1C
0D
16
07
0%
1$
1E
#120000
0!
01
0<
#125000
1!
0'
11
03
0?
1<
1I
0A
0B
0C
1D
0E
1E
1C
0>
1@
1A
18
17
1%
#130000
0!
1'
01
13
1?
0<
0A
0C
0E
#135000
1!
0'
11
03
0?
1<
0I
0H
0G
0F
1A
1C
1E
0E
0C
0A
1>
0@
1A
1B
0;
0:
09
08
1C
0D
04
05
06
07
0%
0$
0#
0"
1E
#140000
0!
1'
01
13
1?
0<
0A
0C
0E
#145000
1!
0'
11
03
0?
1<
1I
1A
1C
1E
0>
1@
0A
0B
18
0C
1D
17
1%
0E
#150000
0!
1'
01
13
1?
0<
1A
1B
1C
0D
1E
0E
0C
#155000
1!
0'
11
03
0?
1<
0I
1H
0A
0B
1C
1E
0C
1D
1A
1>
0@
0A
0E
19
08
16
07
0%
1$
#160000
0!
01
0<
#165000
1!
1'
11
13
1?
1<
1I
0H
1A
1B
1C
0D
1E
0E
0C
0A
0>
1@
1A
09
18
06
17
1%
0$
#170000
0!
01
0<
#175000
1!
0'
11
03
0?
1<
0I
1H
0A
0B
1C
1E
0C
1D
1A
1>
0@
0A
0E
19
08
16
07
0%
1$
#180000
0!
01
0<
#185000
1!
1'
11
13
1?
1<
1I
0H
1A
1B
1C
0D
1E
0E
0C
0A
0>
1@
1A
09
18
06
17
1%
0$
#190000
0!
01
0<
#195000
1!
11
1<
0I
1H
0A
0B
1>
0@
1A
1B
1C
19
08
0C
16
07
0%
1$
#200000
0!
0'
01
03
0?
0<
0A
0B
1C
1E
0C
1D
0E
#205000
1!
11
1<
1I
0H
1A
1B
0>
1@
0A
0B
1C
0D
09
18
1E
0C
1D
06
17
1%
0$
0E
#210000
0!
01
0<
#215000
1!
1'
11
13
1?
1<
0I
1A
1B
1C
0D
1E
0E
0C
1>
0@
0A
08
07
0%
#220000
0!
01
0<
#225000
1!
0'
11
03
0?
1<
1I
1A
1C
1E
0>
1@
0A
0B
18
0C
1D
17
1%
0E
#230000
0!
1'
01
13
1?
0<
1A
1B
1C
0D
1E
0E
0C
#235000
1!
0'
11
03
0?
1<
0I
1H
0A
0B
1C
1E
0C
1D
1A
1>
0@
0A
0E
19
08
16
07
0%
1$
#240000
0!
01
0<
#245000
1!
1'
11
13
1?
1<
1I
0H
1A
1B
1C
0D
1E
0E
0C
0A
0>
1@
1A
09
18
06
17
1%
0$
#250000
0!
01
0<
#255000
1!
0'
11
03
0?
1<
0I
1H
0A
0B
1C
1E
0C
1D
1A
1>
0@
0A
0E
19
08
16
07
0%
1$
#260000
0!
1'
01
13
1?
0<
1A
1B
1C
0D
1E
0E
0C
#265000
1!
0'
11
03
0?
1<
1I
0A
0B
1C
1E
0C
1D
0>
1@
1A
0E
18
17
1%
#270000
0!
1'
01
13
1?
0<
0A
1C
0D
1E
0E
#275000
1!
0'
11
03
0?
1<
0I
0H
1G
1A
0C
1D
1E
0E
1C
0A
1>
0@
1A
1B
1:
09
08
0C
15
06
07
0%
0$
1#
#280000
0!
1'
01
13
1?
0<
0A
1C
0D
1E
0E
#285000
1!
0'
11
03
0?
1<
1I
1A
0C
1D
1E
0E
0>
1@
0A
0B
18
1C
17
1%
#290000
0!
01
0<
#295000
1!
11
1<
0I
1>
0@
1A
1B
08
0C
07
0%
#300000
0!
1'
01
13
1?
0<
0A
1C
0D
1E
0E
#305000
1!
0'
11
03
0?
1<
1I
1A
0C
1D
1E
0E
0>
1@
0A
0B
18
1C
17
1%
#310000
0!
01
0<
#315000
1!
1'
11
13
1?
1<
0I
1A
1B
0C
1E
1C
0D
1>
0@
0A
0E
08
07
0%
#320000
0!
0'
01
03
0?
0<
1A
0C
1D
1E
0E
#325000
1!
1'
11
13
1?
1<
1I
1H
0G
0A
1C
0D
1E
0E
0C
1A
0>
1@
0A
0B
0:
19
18
1C
05
16
17
1%
1$
0#
#330000
0!
0'
01
03
0?
0<
1A
0C
1D
1E
0E
#335000
1!
1'
11
13
1?
1<
0I
0A
1C
0D
1E
0E
1>
0@
1A
1B
08
0C
07
0%
#340000
0!
01
0<
#345000
1!
11
1<
1I
0>
1@
0A
0B
18
1C
17
1%
#350000
0!
0'
01
03
0?
0<
1A
0C
1D
1E
0E
#355000
1!
11
1<
0I
1>
0@
0A
08
07
0%
#360000
0!
01
0<
#365000
1!
1'
11
13
1?
1<
1I
0H
1A
1B
1C
0D
1E
0E
0C
0A
0>
1@
1A
09
18
06
17
1%
0$
#370000
0!
01
0<
#375000
1!
0'
11
03
0?
1<
0I
1H
0A
0B
1C
1E
0C
1D
1A
1>
0@
0A
0E
19
08
16
07
0%
1$
#380000
0!
01
0<
#385000
1!
11
1<
1I
0H
1A
1B
0>
1@
0A
0B
1C
0D
09
18
1E
0C
1D
06
17
1%
0$
0E
#390000
0!
1'
01
13
1?
0<
1A
1B
1C
0D
1E
0E
0C
#395000
1!
0'
11
03
0?
1<
0I
1H
0A
0B
1C
1E
0C
1D
1A
1>
0@
0A
0E
19
08
16
07
0%
1$
#400000
0!
01
0<
#405000
1!
1'
11
13
1?
1<
1I
0H
1A
1B
1C
0D
1E
0E
0C
0A
0>
1@
1A
09
18
06
17
1%
0$
#410000
0!
01
0<
#415000
1!
11
1<
0I
1H
0A
0B
1>
0@
1A
1B
1C
19
08
0C
16
07
0%
1$
#420000
0!
0'
01
03
0?
0<
0A
0B
1C
1E
0C
1D
0E
#425000
1!
1'
11
13
1?
1<
1I
0H
1A
1B
1C
0D
1E
0E
0C
0A
0>
1@
1A
09
18
06
17
1%
0$
#430000
0!
01
0<
#435000
1!
0'
11
03
0?
1<
0I
1H
0A
0B
1C
1E
0C
1D
1A
1>
0@
0A
0E
19
08
16
07
0%
1$
#440000
0!
01
0<
#445000
1!
11
1<
1I
0H
1A
1B
0>
1@
0A
0B
1C
0D
09
18
1E
0C
1D
06
17
1%
0$
0E
#450000
0!
1'
01
13
1?
0<
1A
1B
1C
0D
1E
0E
0C
#455000
1!
0'
11
03
0?
1<
0I
1H
0A
0B
1C
1E
0C
1D
1A
1>
0@
0A
0E
19
08
16
07
0%
1$
#460000
0!
1'
01
13
1?
0<
1A
1B
1C
0D
1E
0E
0C
#465000
1!
11
1<
1I
0>
1@
0A
0B
18
1C
17
1%
#470000
0!
01
0<
#475000
1!
11
1<
0I
0H
1G
0C
1D
1A
1B
1>
0@
0A
1C
0D
1E
1:
09
08
0E
15
06
07
0%
0$
1#
#480000
0!
01
0<
#485000
1!
11
1<
1I
0>
1@
1A
18
17
1%
#490000
0!
01
0<
#495000
1!
11
1<
0I
1H
0A
0B
1>
0@
1A
1B
0C
1D
19
08
1E
1C
0D
16
07
0%
1$
0E
#500000
0!
01
0<
#505000
1!
11
1<
1I
0>
1@
0A
0B
18
0C
1D
17
1%
1E
#510000
0!
01
0<
#515000
1!
11
1<
0I
0H
0G
1F
0E
1C
0D
1A
1B
1>
0@
0A
0C
1E
1;
0:
09
08
14
05
06
07
0%
0$
0#
1"
#520000
0!
0'
01
03
0?
0<
1A
1C
0E
#525000
1!
11
1<
1I
1H
1G
0F
1E
0C
1D
0A
0B
0>
1@
1A
1C
0E
0;
1:
19
18
04
15
16
17
1%
1$
1#
0"
#530000
0!
1'
01
13
1?
0<
0A
0C
1E
#535000
1!
11
1<
0I
0H
0G
1F
0E
1C
0D
1A
1B
1>
0@
0A
0C
1E
1;
0:
09
08
14
05
06
07
0%
0$
0#
1"
#540000
0!
01
0<
#545000
1!
11
1<
1I
0>
1@
1A
18
17
1%
#550000
0!
0'
01
03
0?
0<
0A
0B
1C
0E
0C
1D
1E
#555000
1!
11
1<
0I
1>
0@
1A
1B
08
1C
0D
07
0%
0E
#560000
0!
01
0<
#565000
1!
1'
11
13
1?
1<
1I
1H
1G
0F
0A
0C
1E
0E
1C
1A
0>
1@
0A
0B
0;
1:
19
18
0C
1D
04
15
16
17
1%
1$
1#
0"
1E
#570000
0!
0'
01
03
0?
0<
1A
1C
0E
#575000
1!
11
1<
0I
1>
0@
0A
08
07
0%
#580000
0!
01
0<
#585000
1!
11
1<
1I
0H
1A
1B
0>
1@
0A
0B
0C
09
18
1C
06
17
1%
0$
#590000
0!
01
0<
#595000
1!
1'
11
13
1?
1<
0I
1A
1B
0C
1E
1C
0D
1>
0@
0A
0E
08
07
0%
#600000
0!
01
0<
#605000
1!
11
1<
1I
0>
1@
1A
18
17
1%
#610000
0!
01
0<
#615000
1!
11
1<
0I
1H
0A
0B
1>
0@
1A
1B
0C
1D
19
08
1E
1C
0D
16
07
0%
1$
0E
#620000
0!
0'
01
03
0?
0<
0A
0B
0C
1D
1E
0E
1C
#625000
1!
1'
11
13
1?
1<
1I
0H
1A
1B
0C
1E
1C
0D
0A
0>
1@
1A
0E
09
18
06
17
1%
0$
#630000
0!
01
0<
#635000
1!
0'
11
03
0?
1<
0I
1H
0A
0B
0C
1D
1E
0E
1C
1A
1>
0@
0A
19
08
16
07
0%
1$
#640000
0!
1'
01
13
1?
0<
1A
1B
0C
1E
1C
0D
0E
#645000
1!
11
1<
1I
0>
1@
0A
0B
18
0C
1D
17
1%
1E
#650000
0!
0'
01
03
0?
0<
1A
1C
0E
#655000
1!
11
1<
0I
1>
0@
0A
08
07
0%
#660000
0!
1'
01
13
1?
0<
1A
1B
0C
1E
1C
0D
0E
#665000
1!
0'
11
03
0?
1<
1I
0A
0B
0C
1D
1E
0E
1C
0>
1@
1A
18
17
1%
#670000
0!
1'
01
13
1?
0<
0A
0C
1E
#675000
1!
0'
11
03
0?
1<
0I
0H
0G
1F
1A
1C
0E
1E
0C
0A
1>
0@
1A
1B
1;
0:
09
08
1C
0D
14
05
06
07
0%
0$
0#
1"
0E
#680000
0!
01
0<
#685000
1!
11
1<
1I
1H
1G
0F
1E
0C
1D
0A
0B
0>
1@
1A
1C
0E
0;
1:
19
18
04
15
16
17
1%
1$
1#
0"
#690000
0!
1'
01
13
1?
0<
0A
0C
1E
#695000
1!
11
1<
0I
0H
0G
1F
0E
1C
0D
1A
1B
1>
0@
0A
0C
1E
1;
0:
09
08
14
05
06
07
0%
0$
0#
1"
#700000
0!
0'
01
03
0?
0<
1A
1C
0E
#705000
1!
1'
11
13
1?
1<
1I
1H
1G
0F
0A
0C
1E
0E
1C
1A
0>
1@
0A
0B
0;
1:
19
18
0C
1D
04
15
16
17
1%
1$
1#
0"
1E
#710000
0!
0'
01
03
0?
0<
1A
1C
0E
#715000
1!
11
1<
0I
1>
0@
0A
08
07
0%
#720000
0!
1'
01
13
1?
0<
1A
1B
0C
1E
1C
0D
0E
#725000
1!
11
1<
1I
0>
1@
0A
0B
18
0C
1D
17
1%
1E
#730000
0!
0'
01
03
0?
0<
1A
1C
0E
#735000
1!
11
1<
0I
1>
0@
0A
08
07
0%
#740000
0!
01
0<
#745000
1!
11
1<
1I
0H
1A
1B
0>
1@
0A
0B
0C
09
18
1C
06
17
1%
0$
#750000
0!
1'
01
13
1?
0<
1A
1B
0C
1E
1C
0D
0E
#755000
1!
11
1<
0I
1H
0A
0B
1>
0@
1A
1B
0C
1D
19
08
1E
1C
0D
16
07
0%
1$
0E
#760000
0!
0'
01
03
0?
0<
0A
0B
0C
1D
1E
0E
1C
#765000
1!
11
1<
1I
0H
1A
1B
0>
1@
0A
0B
0C
09
18
1C
06
17
1%
0$
#770000
0!
1'
01
13
1?
0<
1A
1B
0C
1E
1C
0D
0E
#775000
1!
11
1<
0I
1H
0A
0B
1>
0@
1A
1B
0C
1D
19
08
1E
1C
0D
16
07
0%
1$
0E
#780000
0!
01
0<
#785000
1!
0'
11
03
0?
1<
1I
0A
0B
0C
1D
1E
0E
1C
0>
1@
1A
18
17
1%
#790000
0!
1'
01
13
1?
0<
0A
0C
1E
#795000
1!
0'
11
03
0?
1<
0I
0H
0G
1F
1A
1C
0E
1E
0C
0A
1>
0@
1A
1B
1;
0:
09
08
1C
0D
14
05
06
07
0%
0$
0#
1"
0E
#800000
0!
1'
01
13
1?
0<
0A
0C
1E
#805000
1!
0'
11
03
0?
1<
1I
1A
1C
0E
0>
1@
0A
0B
18
0C
1D
17
1%
1E
#810000
0!
1'
01
13
1?
0<
1A
1B
1C
0D
0E
1E
0C
#815000
1!
0'
11
03
0?
1<
0I
1H
0A
0B
1C
0E
0C
1D
1A
1>
0@
0A
1E
19
08
16
07
0%
1$
#820000
0!
1'
01
13
1?
0<
1A
1B
1C
0D
0E
1E
0C
#825000
1!
0'
11
03
0?
1<
1I
0A
0B
1C
0E
0C
1D
0>
1@
1A
1E
18
17
1%
#830000
0!
1'
01
13
1?
0<
0A
1C
0D
0E
1E
#835000
1!
11
1<
0I
0H
1G
0C
1D
1A
1B
1>
0@
0A
1C
0D
0E
1:
09
08
1E
15
06
07
0%
0$
1#
#840000
0!
01
0<
#845000
1!
0'
11
03
0?
1<
1I
1A
0C
1D
0E
1E
0>
1@
0A
0B
18
1C
17
1%
#850000
0!
01
0<
#855000
1!
11
1<
0I
1>
0@
1A
1B
08
0C
07
0%
#860000
0!
1'
01
13
1?
0<
0A
1C
0D
0E
1E
#865000
1!
11
1<
1I
0>
1@
1A
18
17
1%
#870000
0!
01
0<
#875000
1!
0'
11
03
0?
1<
0I
1H
0A
0B
0C
1D
0E
1E
1C
1A
1>
0@
0A
19
08
16
07
0%
1$
#880000
0!
1'
01
13
1?
0<
1A
1B
0C
0E
1C
0D
1E
#885000
1!
0'
11
03
0?
1<
1I
0A
0B
0C
1D
0E
1E
1C
0>
1@
1A
18
17
1%
#890000
0!
01
0<
#895000
1!
1'
11
13
1?
1<
0I
0A
0C
0E
1>
0@
1A
1B
08
1C
0D
07
0%
1E
#900000
0!
0'
01
03
0?
0<
0A
0B
0C
1D
0E
1E
1C
#905000
1!
11
1<
1I
0H
1A
1B
0>
1@
0A
0B
0C
09
18
1C
06
17
1%
0$
#910000
0!
01
0<
#915000
1!
11
1<
0I
1>
0@
1A
1B
08
0C
07
0%
#920000
0!
1'
01
13
1?
0<
0A
1C
0D
0E
1E
#925000
1!
11
1<
1I
0>
1@
1A
18
17
1%
#930000
0!
01
0<
#935000
1!
11
1<
0I
1H
0A
0B
1>
0@
1A
1B
0C
1D
19
08
0E
1C
0D
16
07
0%
1$
1E
#940000
0!
01
0<
#945000
1!
0'
11
03
0?
1<
1I
0A
0B
0C
1D
0E
1E
1C
0>
1@
1A
18
17
1%
#950000
0!
01
0<
#955000
1!
1'
11
13
1?
1<
0I
0A
0C
0E
1>
0@
1A
1B
08
1C
0D
07
0%
1E
#960000
0!
01
0<
#965000
1!
11
1<
1I
0>
1@
0A
0B
18
0C
1D
17
1%
0E
#970000
0!
0'
01
03
0?
0<
1A
1C
1E
#975000
1!
1'
11
13
1?
1<
0I
0A
0C
0E
1>
0@
1A
1B
08
1C
0D
07
0%
1E
#980000
0!
01
0<
#985000
1!
11
1<
1I
0>
1@
0A
0B
18
0C
1D
17
1%
0E
#990000
0!
01
0<
#995000
1!
0'
11
03
0?
1<
0I
0H
0G
0F
1A
1C
1E
0E
0C
0A
1>
0@
1A
1B
0;
0:
09
08
1C
0D
04
05
06
07
0%
0$
0#
0"
1E
