LSD/praticas/P4/Parte1/simulation/qsim/FlipFlopD_Demo.msim.vcd
$comment
	File created using the following command:
		vcd file FlipFlopD_Demo.msim.vcd -direction
$end
$date
	Mon Mar 25 14:11:06 2019
$end
$version
	ModelSim Version 10.5b
$end
$timescale
	1ps
$end

$scope module flipflopd_vhd_vec_tst $end
$var wire 1 ! clk $end
$var wire 1 " d $end
$var wire 1 # q $end
$var wire 1 $ reset $end
$var wire 1 % set $end

$scope module i1 $end
$var wire 1 & gnd $end
$var wire 1 ' vcc $end
$var wire 1 ( unknown $end
$var wire 1 ) devoe $end
$var wire 1 * devclrn $end
$var wire 1 + devpor $end
$var wire 1 , ww_devoe $end
$var wire 1 - ww_devclrn $end
$var wire 1 . ww_devpor $end
$var wire 1 / ww_clk $end
$var wire 1 0 ww_d $end
$var wire 1 1 ww_reset $end
$var wire 1 2 ww_set $end
$var wire 1 3 ww_q $end
$var wire 1 4 \q~output_o\ $end
$var wire 1 5 \clk~input_o\ $end
$var wire 1 6 \d~input_o\ $end
$var wire 1 7 \set~input_o\ $end
$var wire 1 8 \reset~input_o\ $end
$var wire 1 9 \q~0_combout\ $end
$var wire 1 : \q~reg0_q\ $end
$upscope $end
$upscope $end
$enddefinitions $end
#0
$dumpvars
0!
0"
0#
0$
0%
0&
1'
x(
1)
1*
1+
1,
1-
1.
0/
00
01
02
03
04
05
06
07
08
09
0:
$end
#5000
1!
1"
1$
1/
10
11
18
16
15
#10000
0!
0$
0/
01
08
05
19
#15000
1!
1/
15
1:
14
13
1#
#20000
0!
0"
0/
00
06
05
09
#25000
1!
1"
1$
1%
1/
10
11
12
17
18
16
15
0:
04
03
0#
#30000
0!
0$
0%
0/
01
02
07
08
05
19
#35000
1!
1$
1/
11
18
15
1:
09
14
13
1#
#40000
0!
0$
0"
0/
01
00
06
08
05
#45000
1!
1%
1/
12
17
15
0:
19
04
03
0#
#50000
0!
0%
1$
0/
02
11
18
07
05
09
#55000
1!
0$
1"
1/
01
10
16
08
15
19
#60000
0!
1$
0"
1%
0/
11
00
12
17
06
18
05
09
#65000
1!
0$
1"
1/
01
10
16
08
15
19
#70000
0!
1$
0"
0%
0/
11
00
02
07
06
18
05
09
#75000
1!
0$
1/
01
08
15
#80000
0!
1"
1%
0/
10
12
17
16
05
19
#85000
1!
0%
1$
1/
02
11
18
07
15
1:
09
14
13
1#
#90000
0!
0$
0/
01
08
05
19
#95000
1!
1$
1%
0"
1/
11
12
00
06
17
18
15
09
#100000
0!
1"
0/
10
16
05
#105000
1!
0"
0$
1/
00
01
08
06
15
0:
19
04
03
0#
#110000
0!
1"
1$
0/
10
11
18
16
05
09
#115000
1!
0$
1/
01
08
15
19
#120000
0!
0/
05
#125000
1!
1$
1/
11
18
15
1:
09
14
13
1#
#130000
0!
0$
0"
0/
01
00
06
08
05
19
#135000
1!
1$
1"
0%
1/
11
10
02
07
16
18
15
09
#140000
0!
0"
1%
0/
00
12
17
06
05
#145000
1!
1"
0%
1/
10
02
07
16
15
0:
04
03
0#
#150000
0!
0"
0$
0/
00
01
08
06
05
#155000
1!
1$
1/
11
18
15
#160000
0!
1"
0/
10
16
05
#165000
1!
1/
15
#170000
0!
0"
0/
00
06
05
#175000
1!
0$
1/
01
08
15
#180000
0!
1$
1%
0/
11
12
17
18
05
#185000
1!
0$
0%
1"
1/
01
02
10
16
07
08
15
19
#190000
0!
1$
0"
0/
11
00
06
18
05
09
#195000
1!
0$
1%
1/
01
12
17
08
15
19
#200000
0!
1$
0/
11
18
05
09
#205000
1!
0$
0%
1"
1/
01
02
10
16
07
08
15
19
#210000
0!
1$
0/
11
18
05
09
#215000
1!
0$
1%
0"
1/
01
12
00
06
17
08
15
19
#220000
0!
1"
0/
10
16
05
#225000
1!
1/
15
1:
14
13
1#
#230000
0!
0/
05
#235000
1!
0"
1/
00
06
15
#240000
0!
1$
0/
11
18
05
09
#245000
1!
0$
1/
01
08
15
0:
19
04
03
0#
#250000
0!
0/
05
#255000
1!
1$
0%
1/
11
02
07
18
15
1:
09
14
13
1#
#260000
0!
0$
1%
1"
0/
01
12
10
16
17
08
05
19
#265000
1!
1$
1/
11
18
15
09
#270000
0!
0%
0/
02
07
05
#275000
1!
0$
0"
1/
01
00
06
08
15
0:
04
03
0#
#280000
0!
1"
0/
10
16
05
19
#285000
1!
0"
1/
00
06
15
1:
09
14
13
1#
#290000
0!
0/
05
#295000
1!
1$
1%
1/
11
12
17
18
15
0:
04
03
0#
#300000
0!
0$
0%
0/
01
02
07
08
05
#305000
1!
1$
1%
1"
1/
11
12
10
16
17
18
15
#310000
0!
0%
0/
02
07
05
#315000
1!
0$
1/
01
08
15
19
#320000
0!
1$
0/
11
18
05
09
#325000
1!
1%
1/
12
17
15
#330000
0!
0$
0"
0/
01
00
06
08
05
19
#335000
1!
1$
1"
1/
11
10
16
18
15
1:
09
14
13
1#
#340000
0!
0"
0/
00
06
05
#345000
1!
1"
1/
10
16
15
0:
04
03
0#
#350000
0!
0/
05
#355000
1!
0"
0%
1/
00
02
07
06
15
#360000
0!
1"
1%
0$
0/
10
12
01
08
17
16
05
19
#365000
1!
1/
15
1:
14
13
1#
#370000
0!
0%
0/
02
07
05
#375000
1!
0"
1/
00
06
15
09
#380000
0!
1"
1%
0/
10
12
17
16
05
19
#385000
1!
1/
15
#390000
0!
0"
0/
00
06
05
#395000
1!
1"
1$
1/
10
11
18
16
15
09
#400000
0!
0"
0$
0%
0/
00
01
02
07
08
06
05
#405000
1!
1$
1%
1/
11
12
17
18
15
0:
04
03
0#
#410000
0!
1"
0/
10
16
05
#415000
1!
1/
15
#420000
0!
0$
0%
0/
01
02
07
08
05
19
#425000
1!
1%
0"
1/
12
00
06
17
15
1:
14
13
1#
#430000
0!
0%
1"
1$
0/
02
10
11
18
16
07
05
09
#435000
1!
1%
0"
1/
12
00
06
17
15
0:
04
03
0#
#440000
0!
0/
05
#445000
1!
1"
1/
10
16
15
#450000
0!
0"
0%
0/
00
02
07
06
05
#455000
1!
1%
0$
1/
12
01
08
17
15
19
#460000
0!
0%
1"
0/
02
10
16
07
05
#465000
1!
1%
0"
1/
12
00
06
17
15
1:
14
13
1#
#470000
0!
0%
0/
02
07
05
09
#475000
1!
1%
1/
12
17
15
0:
19
04
03
0#
#480000
0!
0%
1"
1$
0/
02
10
11
18
16
07
05
09
#485000
1!
0"
0$
1/
00
01
08
06
15
#490000
0!
1"
1%
0/
10
12
17
16
05
19
#495000
1!
0"
1/
00
06
15
1:
14
13
1#
#500000
0!
0%
0/
02
07
05
09
#505000
1!
1%
1/
12
17
15
0:
19
04
03
0#
#510000
0!
0%
1$
0/
02
11
18
07
05
09
#515000
1!
1"
1/
10
16
15
#520000
0!
0"
0/
00
06
05
#525000
1!
1"
0$
1/
10
01
08
16
15
19
#530000
0!
0"
0/
00
06
05
09
#535000
1!
1"
1$
1/
10
11
18
16
15
#540000
0!
0"
0$
0/
00
01
08
06
05
#545000
1!
1$
1/
11
18
15
#550000
0!
0$
1"
0/
01
10
16
08
05
19
#555000
1!
1$
1%
1/
11
12
17
18
15
1:
09
14
13
1#
#560000
0!
0%
0"
0/
02
00
06
07
05
#565000
1!
1%
1"
0$
1/
12
10
01
08
16
17
15
0:
19
04
03
0#
#570000
0!
0%
0"
0/
02
00
06
07
05
09
#575000
1!
1%
1$
1/
12
11
18
17
15
#580000
0!
0%
0/
02
07
05
#585000
1!
1%
0$
1"
1/
12
01
10
16
08
17
15
19
#590000
0!
1$
0"
0/
11
00
06
18
05
09
#595000
1!
0$
1/
01
08
15
19
#600000
0!
1$
0/
11
18
05
09
#605000
1!
0%
1/
02
07
15
#610000
0!
1%
0$
1"
0/
12
01
10
16
08
17
05
19
#615000
1!
0"
1/
00
06
15
1:
14
13
1#
#620000
0!
1"
0%
1$
0/
10
02
11
18
07
16
05
09
#625000
1!
0$
1/
01
08
15
0:
19
04
03
0#
#630000
0!
1$
0"
0/
11
00
06
18
05
09
#635000
1!
0$
1"
1/
01
10
16
08
15
19
#640000
0!
1$
0"
0/
11
00
06
18
05
09
#645000
1!
0$
1"
1%
1/
01
10
12
17
16
08
15
19
#650000
0!
0"
0/
00
06
05
#655000
1!
1"
1/
10
16
15
1:
14
13
1#
#660000
0!
0"
0/
00
06
05
#665000
1!
1$
1/
11
18
15
09
#670000
0!
0$
1"
0%
0/
01
10
02
07
16
08
05
19
#675000
1!
1$
1/
11
18
15
09
#680000
0!
0$
0/
01
08
05
19
#685000
1!
0"
1%
1/
00
12
17
06
15
#690000
0!
1$
0/
11
18
05
09
#695000
1!
1/
15
0:
04
03
0#
#700000
0!
0/
05
#705000
1!
0$
1/
01
08
15
19
#710000
0!
1$
1"
0/
11
10
16
18
05
09
#715000
1!
0$
0"
1/
01
00
06
08
15
19
#720000
0!
1$
0%
0/
11
02
07
18
05
09
#725000
1!
1%
1"
1/
12
10
16
17
15
#730000
0!
0"
0/
00
06
05
#735000
1!
1"
1/
10
16
15
#740000
0!
0"
0/
00
06
05
#745000
1!
1"
1/
10
16
15
#750000
0!
0"
0%
0$
0/
00
02
01
08
07
06
05
#755000
1!
1%
1$
1/
12
11
18
17
15
#760000
0!
0%
0$
1"
0/
02
01
10
16
08
07
05
19
#765000
1!
1%
1$
0"
1/
12
11
00
06
18
17
15
1:
09
14
13
1#
#770000
0!
0$
1"
0/
01
10
16
08
05
19
#775000
1!
0%
1/
02
07
15
#780000
0!
0"
0/
00
06
05
09
#785000
1!
1"
1/
10
16
15
0:
19
04
03
0#
#790000
0!
0"
1$
0/
00
11
18
06
05
09
#795000
1!
1/
15
#800000
0!
1"
0$
1%
0/
10
01
12
17
08
16
05
19
#805000
1!
0%
1/
02
07
15
1:
14
13
1#
#810000
0!
1%
1$
0/
12
11
18
17
05
09
#815000
1!
0%
0"
1/
02
00
06
07
15
0:
04
03
0#
#820000
0!
1%
1"
0/
12
10
16
17
05
#825000
1!
0%
0"
1/
02
00
06
07
15
#830000
0!
1%
1"
0$
0/
12
10
01
08
16
17
05
19
#835000
1!
0%
0"
1$
1/
02
00
11
18
06
07
15
1:
09
14
13
1#
#840000
0!
0$
0/
01
08
05
#845000
1!
1$
1"
1/
11
10
16
18
15
0:
04
03
0#
#850000
0!
0$
0"
0/
01
00
06
08
05
#855000
1!
1/
15
#860000
0!
1$
0/
11
18
05
#865000
1!
1/
15
#870000
0!
0$
1"
0/
01
10
16
08
05
19
#875000
1!
0"
1/
00
06
15
1:
09
14
13
1#
#880000
0!
1%
0/
12
17
05
19
#885000
1!
0%
1"
1$
1/
02
10
11
18
16
07
15
09
#890000
0!
0"
0/
00
06
05
#895000
1!
1%
1/
12
17
15
0:
04
03
0#
#900000
0!
1"
0$
0/
10
01
08
16
05
19
#905000
1!
1$
0%
1/
11
02
07
18
15
1:
09
14
13
1#
#910000
0!
0$
0/
01
08
05
19
#915000
1!
0"
1/
00
06
15
09
#920000
0!
1"
0/
10
16
05
19
#925000
1!
1$
1/
11
18
15
09
#930000
0!
0$
0/
01
08
05
19
#935000
1!
1$
1%
1/
11
12
17
18
15
09
#940000
0!
0$
0%
0/
01
02
07
08
05
19
#945000
1!
1%
1/
12
17
15
#950000
0!
0"
0/
00
06
05
#955000
1!
0%
1$
1/
02
11
18
07
15
09
#960000
0!
0$
1"
0/
01
10
16
08
05
19
#965000
1!
1/
15
#970000
0!
1$
1%
0/
11
12
17
18
05
09
#975000
1!
1/
15
0:
04
03
0#
#980000
0!
0$
0%
0"
0/
01
02
00
06
07
08
05
#985000
1!
1$
1"
1/
11
10
16
18
15
#990000
0!
0$
1%
0/
01
12
17
08
05
19
#995000
1!
1$
0"
1/
11
00
06
18
15
1:
09
14
13
1#
