LSD/praticas/P5/Parte3/simulation/qsim/TimerN_Demo.msim.vcd
$comment
	File created using the following command:
		vcd file TimerN_Demo.msim.vcd -direction
$end
$date
	Wed Apr 03 14:29:49 2019
$end
$version
	ModelSim Version 10.5b
$end
$timescale
	1ps
$end

$scope module timern_demo_vhd_vec_tst $end
$var wire 1 ! CLOCK_50 $end
$var wire 1 " LEDR [0] $end
$var wire 1 # SW [2] $end
$var wire 1 $ SW [1] $end
$var wire 1 % SW [0] $end

$scope module i1 $end
$var wire 1 & gnd $end
$var wire 1 ' vcc $end
$var wire 1 ( unknown $end
$var wire 1 ) devoe $end
$var wire 1 * devclrn $end
$var wire 1 + devpor $end
$var wire 1 , ww_devoe $end
$var wire 1 - ww_devclrn $end
$var wire 1 . ww_devpor $end
$var wire 1 / ww_LEDR [0] $end
$var wire 1 0 ww_CLOCK_50 $end
$var wire 1 1 ww_SW [2] $end
$var wire 1 2 ww_SW [1] $end
$var wire 1 3 ww_SW [0] $end
$var wire 1 4 \CLOCK_50~inputclkctrl_INCLK_bus\ [3] $end
$var wire 1 5 \CLOCK_50~inputclkctrl_INCLK_bus\ [2] $end
$var wire 1 6 \CLOCK_50~inputclkctrl_INCLK_bus\ [1] $end
$var wire 1 7 \CLOCK_50~inputclkctrl_INCLK_bus\ [0] $end
$var wire 1 8 \LEDR[0]~output_o\ $end
$var wire 1 9 \CLOCK_50~input_o\ $end
$var wire 1 : \CLOCK_50~inputclkctrl_outclk\ $end
$var wire 1 ; \SW[0]~input_o\ $end
$var wire 1 < \SW[1]~input_o\ $end
$var wire 1 = \inst|count[0]~32_combout\ $end
$var wire 1 > \inst|count[9]~53\ $end
$var wire 1 ? \inst|count[10]~54_combout\ $end
$var wire 1 @ \SW[2]~input_o\ $end
$var wire 1 A \inst|count[0]~43_combout\ $end
$var wire 1 B \inst|count[10]~55\ $end
$var wire 1 C \inst|count[11]~56_combout\ $end
$var wire 1 D \inst|count[11]~57\ $end
$var wire 1 E \inst|count[12]~58_combout\ $end
$var wire 1 F \inst|count[12]~59\ $end
$var wire 1 G \inst|count[13]~60_combout\ $end
$var wire 1 H \inst|count[13]~61\ $end
$var wire 1 I \inst|count[14]~62_combout\ $end
$var wire 1 J \inst|count[14]~63\ $end
$var wire 1 K \inst|count[15]~64_combout\ $end
$var wire 1 L \inst|count[15]~65\ $end
$var wire 1 M \inst|count[16]~66_combout\ $end
$var wire 1 N \inst|count[16]~67\ $end
$var wire 1 O \inst|count[17]~68_combout\ $end
$var wire 1 P \inst|count[17]~69\ $end
$var wire 1 Q \inst|count[18]~70_combout\ $end
$var wire 1 R \inst|count[18]~71\ $end
$var wire 1 S \inst|count[19]~72_combout\ $end
$var wire 1 T \inst|count[19]~73\ $end
$var wire 1 U \inst|count[20]~74_combout\ $end
$var wire 1 V \inst|count[20]~75\ $end
$var wire 1 W \inst|count[21]~76_combout\ $end
$var wire 1 X \inst|count[21]~77\ $end
$var wire 1 Y \inst|count[22]~78_combout\ $end
$var wire 1 Z \inst|count[22]~79\ $end
$var wire 1 [ \inst|count[23]~80_combout\ $end
$var wire 1 \ \inst|count[23]~81\ $end
$var wire 1 ] \inst|count[24]~82_combout\ $end
$var wire 1 ^ \inst|count[24]~83\ $end
$var wire 1 _ \inst|count[25]~84_combout\ $end
$var wire 1 ` \inst|count[25]~85\ $end
$var wire 1 a \inst|count[26]~86_combout\ $end
$var wire 1 b \inst|count[26]~87\ $end
$var wire 1 c \inst|count[27]~88_combout\ $end
$var wire 1 d \inst|Equal0~5_combout\ $end
$var wire 1 e \inst|count[27]~89\ $end
$var wire 1 f \inst|count[28]~90_combout\ $end
$var wire 1 g \inst|count[28]~91\ $end
$var wire 1 h \inst|count[29]~92_combout\ $end
$var wire 1 i \inst|count[29]~93\ $end
$var wire 1 j \inst|count[30]~94_combout\ $end
$var wire 1 k \inst|count[30]~95\ $end
$var wire 1 l \inst|count[31]~96_combout\ $end
$var wire 1 m \inst|Equal0~6_combout\ $end
$var wire 1 n \inst|Equal0~2_combout\ $end
$var wire 1 o \inst|Equal0~1_combout\ $end
$var wire 1 p \inst|Equal0~3_combout\ $end
$var wire 1 q \inst|Equal0~0_combout\ $end
$var wire 1 r \inst|Equal0~4_combout\ $end
$var wire 1 s \inst|Equal0~7_combout\ $end
$var wire 1 t \inst|Equal0~9_combout\ $end
$var wire 1 u \inst|Equal0~8_combout\ $end
$var wire 1 v \inst|Equal0~10_combout\ $end
$var wire 1 w \inst|count[0]~42_combout\ $end
$var wire 1 x \inst|count[0]~33\ $end
$var wire 1 y \inst|count[1]~34_combout\ $end
$var wire 1 z \inst|count[1]~35\ $end
$var wire 1 { \inst|count[2]~36_combout\ $end
$var wire 1 | \inst|count[2]~37\ $end
$var wire 1 } \inst|count[3]~38_combout\ $end
$var wire 1 ~ \inst|count[3]~39\ $end
$var wire 1 !! \inst|count[4]~40_combout\ $end
$var wire 1 "! \inst|count[4]~41\ $end
$var wire 1 #! \inst|count[5]~44_combout\ $end
$var wire 1 $! \inst|count[5]~45\ $end
$var wire 1 %! \inst|count[6]~46_combout\ $end
$var wire 1 &! \inst|count[6]~47\ $end
$var wire 1 '! \inst|count[7]~48_combout\ $end
$var wire 1 (! \inst|count[7]~49\ $end
$var wire 1 )! \inst|count[8]~50_combout\ $end
$var wire 1 *! \inst|count[8]~51\ $end
$var wire 1 +! \inst|count[9]~52_combout\ $end
$var wire 1 ,! \inst|Equal1~1_combout\ $end
$var wire 1 -! \inst|Equal1~0_combout\ $end
$var wire 1 .! \inst|Equal1~2_combout\ $end
$var wire 1 /! \inst|outs~0_combout\ $end
$var wire 1 0! \inst|outs~1_combout\ $end
$var wire 1 1! \inst|outs~q\ $end
$var wire 1 2! \inst|count\ [31] $end
$var wire 1 3! \inst|count\ [30] $end
$var wire 1 4! \inst|count\ [29] $end
$var wire 1 5! \inst|count\ [28] $end
$var wire 1 6! \inst|count\ [27] $end
$var wire 1 7! \inst|count\ [26] $end
$var wire 1 8! \inst|count\ [25] $end
$var wire 1 9! \inst|count\ [24] $end
$var wire 1 :! \inst|count\ [23] $end
$var wire 1 ;! \inst|count\ [22] $end
$var wire 1 <! \inst|count\ [21] $end
$var wire 1 =! \inst|count\ [20] $end
$var wire 1 >! \inst|count\ [19] $end
$var wire 1 ?! \inst|count\ [18] $end
$var wire 1 @! \inst|count\ [17] $end
$var wire 1 A! \inst|count\ [16] $end
$var wire 1 B! \inst|count\ [15] $end
$var wire 1 C! \inst|count\ [14] $end
$var wire 1 D! \inst|count\ [13] $end
$var wire 1 E! \inst|count\ [12] $end
$var wire 1 F! \inst|count\ [11] $end
$var wire 1 G! \inst|count\ [10] $end
$var wire 1 H! \inst|count\ [9] $end
$var wire 1 I! \inst|count\ [8] $end
$var wire 1 J! \inst|count\ [7] $end
$var wire 1 K! \inst|count\ [6] $end
$var wire 1 L! \inst|count\ [5] $end
$var wire 1 M! \inst|count\ [4] $end
$var wire 1 N! \inst|count\ [3] $end
$var wire 1 O! \inst|count\ [2] $end
$var wire 1 P! \inst|count\ [1] $end
$var wire 1 Q! \inst|count\ [0] $end
$upscope $end
$upscope $end
$enddefinitions $end
#0
$dumpvars
0!
0&
1'
x(
1)
1*
1+
1,
1-
1.
00
08
09
0:
0;
1<
1=
1>
0?
0@
0A
0B
0C
1D
0E
0F
0G
1H
0I
0J
0K
1L
0M
0N
0O
1P
0Q
0R
0S
1T
0U
0V
0W
1X
0Y
0Z
0[
1\
0]
0^
0_
1`
0a
0b
0c
1d
1e
0f
0g
0h
1i
0j
0k
0l
1m
1n
1o
1p
1q
1r
1s
1t
1u
1v
1w
0x
0y
1z
0{
0|
0}
1~
0!!
0"!
0#!
1$!
0%!
0&!
0'!
1(!
0)!
0*!
0+!
0,!
0-!
0.!
0/!
00!
01!
0#
1$
0%
0/
01
12
03
02!
03!
04!
05!
06!
07!
08!
09!
0:!
0;!
0<!
0=!
0>!
0?!
0@!
0A!
0B!
0C!
0D!
0E!
0F!
0G!
0H!
0I!
0J!
0K!
0L!
0M!
0N!
0O!
0P!
0Q!
14
15
16
07
0"
$end
#5000
1!
10
19
17
1:
#10000
0!
00
09
07
0:
#15000
1!
10
19
17
1:
#20000
0!
00
09
07
0:
#25000
1!
10
19
17
1:
#30000
0!
00
09
07
0:
#35000
1!
10
19
17
1:
#40000
0!
00
09
07
0:
#45000
1!
10
19
17
1:
#50000
0!
00
09
07
0:
#55000
1!
10
19
17
1:
#60000
0!
00
09
07
0:
#65000
1!
10
19
17
1:
#70000
0!
1#
00
11
1@
09
07
1A
0w
1/!
10!
0:
#75000
1!
10
19
17
1:
1Q!
11!
0/!
00!
0=
1x
0u
0v
1y
10!
18
1/
1"
#80000
0!
00
09
07
0:
#85000
1!
10
19
17
1:
0Q!
1P!
0y
0z
1=
0x
1y
1z
1{
0{
#90000
0!
00
09
07
0:
#95000
1!
10
19
17
1:
1Q!
0=
1x
0y
0z
1{
#100000
0!
00
09
07
0:
#105000
1!
10
19
17
1:
0Q!
0P!
1O!
0{
1|
1y
1z
1=
0x
0y
1{
0|
1}
0}
#110000
0!
00
09
07
0:
#115000
1!
10
19
17
1:
1Q!
0=
1x
1y
#120000
0!
0#
00
01
0@
09
07
0:
#125000
1!
10
19
17
1:
0Q!
1P!
0y
0z
1=
0x
1y
1z
0{
1|
1}
1{
0|
0}
#130000
0!
00
09
07
0:
#135000
1!
10
19
17
1:
1Q!
0=
1x
0y
0z
0{
1|
1}
#140000
0!
00
09
07
0:
#145000
1!
10
19
17
1:
0Q!
0P!
0O!
1N!
0}
0~
1{
0|
1y
1z
1=
0x
0y
0{
1}
1~
1!!
0!!
#150000
0!
00
09
07
0:
#155000
1!
10
19
17
1:
1Q!
0=
1x
1y
#160000
0!
00
09
07
0:
#165000
1!
10
19
17
1:
0Q!
1P!
0y
0z
1=
0x
1y
1z
1{
0{
#170000
0!
00
09
07
0:
#175000
1!
10
19
17
1:
1Q!
0=
1x
0y
0z
1{
#180000
0!
00
09
07
0:
#185000
1!
10
19
17
1:
0Q!
0P!
1O!
0{
1|
1y
1z
1=
0x
0y
1{
0|
0}
0~
1!!
1}
1~
0!!
#190000
0!
00
09
07
0:
#195000
1!
10
19
17
1:
1Q!
0=
1x
1y
#200000
0!
00
09
07
0:
#205000
1!
10
19
17
1:
0Q!
1P!
0y
0z
1=
0x
1y
1z
0{
1|
0}
0~
1{
0|
1}
1~
1!!
0!!
#210000
0!
00
09
07
0:
#215000
1!
10
19
17
1:
1Q!
0=
1x
1-!
0y
0z
0{
1|
0}
0~
1!!
#220000
0!
00
09
07
0:
#225000
1!
10
19
17
1:
0Q!
0P!
0O!
0N!
1M!
0q
0!!
1"!
1}
1~
1{
0|
1y
1z
1=
0x
1u
0-!
1v
0y
0{
0}
1!!
0"!
1#!
0r
0s
0#!
0A
1w
1/!
00!
0v
1A
0w
0/!
10!
#230000
0!
00
09
07
0:
#235000
1!
10
19
17
1:
1Q!
0=
1x
0u
1y
#240000
0!
00
09
07
0:
#245000
1!
10
19
17
1:
0Q!
1P!
0y
0z
1=
0x
1y
1z
1{
0{
#250000
0!
00
09
07
0:
#255000
1!
10
19
17
1:
1Q!
0=
1x
0y
0z
1{
#260000
0!
00
09
07
0:
#265000
1!
10
19
17
1:
0Q!
0P!
1O!
0{
1|
1y
1z
1=
0x
0y
1{
0|
1}
0}
#270000
0!
00
09
07
0:
#275000
1!
10
19
17
1:
1Q!
0=
1x
1y
#280000
0!
00
09
07
0:
#285000
1!
10
19
17
1:
0Q!
1P!
0y
0z
1=
0x
1y
1z
0{
1|
1}
1{
0|
0}
#290000
0!
00
09
07
0:
#295000
1!
10
19
17
1:
1Q!
0=
1x
0y
0z
0{
1|
1}
#300000
0!
00
09
07
0:
#305000
1!
10
19
17
1:
0Q!
0P!
0O!
1N!
0}
0~
1{
0|
1y
1z
1=
0x
0y
0{
1}
1~
0!!
1"!
1#!
1!!
0"!
0#!
#310000
0!
00
09
07
0:
#315000
1!
10
19
17
1:
1Q!
0=
1x
1y
#320000
0!
00
09
07
0:
#325000
1!
10
19
17
1:
0Q!
1P!
0y
0z
1=
0x
1y
1z
1{
0{
#330000
0!
00
09
07
0:
#335000
1!
10
19
17
1:
1Q!
0=
1x
0y
0z
1{
#340000
0!
1%
00
13
1;
09
07
1w
00!
0:
#345000
1!
10
19
17
1:
0Q!
0P!
0N!
0M!
01!
1q
0!!
0}
1y
1z
1=
0x
1u
0y
0{
1r
08
1s
0/
0"
1v
#350000
0!
00
09
07
0:
#355000
1!
10
19
17
1:
#360000
0!
00
09
07
0:
#365000
1!
10
19
17
1:
#370000
0!
0%
00
03
0;
09
07
0A
0:
#375000
1!
10
19
17
1:
#380000
0!
00
09
07
0:
#385000
1!
10
19
17
1:
#390000
0!
00
09
07
0:
#395000
1!
10
19
17
1:
#400000
0!
00
09
07
0:
#405000
1!
10
19
17
1:
#410000
0!
1#
00
11
1@
09
07
1A
0w
1/!
10!
0:
#415000
1!
10
19
17
1:
1Q!
11!
0/!
00!
0=
1x
0u
0v
1y
10!
18
1/
1"
#420000
0!
00
09
07
0:
#425000
1!
10
19
17
1:
0Q!
1P!
0y
0z
1=
0x
1y
1z
1{
0{
#430000
0!
00
09
07
0:
#435000
1!
10
19
17
1:
1Q!
0=
1x
0y
0z
1{
#440000
0!
00
09
07
0:
#445000
1!
10
19
17
1:
0Q!
0P!
1O!
0{
1|
1y
1z
1=
0x
0y
1{
0|
1}
0}
#450000
0!
00
09
07
0:
#455000
1!
10
19
17
1:
1Q!
0=
1x
1y
#460000
0!
0#
00
01
0@
09
07
0:
#465000
1!
10
19
17
1:
0Q!
1P!
0y
0z
1=
0x
1y
1z
0{
1|
1}
1{
0|
0}
#470000
0!
00
09
07
0:
#475000
1!
10
19
17
1:
1Q!
0=
1x
0y
0z
0{
1|
1}
#480000
0!
00
09
07
0:
#485000
1!
10
19
17
1:
0Q!
0P!
0O!
1N!
0}
0~
1{
0|
1y
1z
1=
0x
0y
0{
1}
1~
1!!
0!!
#490000
0!
00
09
07
0:
#495000
1!
10
19
17
1:
1Q!
0=
1x
1y
#500000
0!
00
09
07
0:
#505000
1!
10
19
17
1:
0Q!
1P!
0y
0z
1=
0x
1y
1z
1{
0{
#510000
0!
00
09
07
0:
#515000
1!
10
19
17
1:
1Q!
0=
1x
0y
0z
1{
#520000
0!
00
09
07
0:
#525000
1!
10
19
17
1:
0Q!
0P!
1O!
0{
1|
1y
1z
1=
0x
0y
1{
0|
0}
0~
1!!
1}
1~
0!!
#530000
0!
00
09
07
0:
#535000
1!
10
19
17
1:
1Q!
0=
1x
1y
#540000
0!
00
09
07
0:
#545000
1!
10
19
17
1:
0Q!
1P!
0y
0z
1=
0x
1y
1z
0{
1|
0}
0~
1{
0|
1}
1~
1!!
0!!
#550000
0!
00
09
07
0:
#555000
1!
10
19
17
1:
1Q!
0=
1x
1-!
0y
0z
0{
1|
0}
0~
1!!
#560000
0!
00
09
07
0:
#565000
1!
10
19
17
1:
0Q!
0P!
0O!
0N!
1M!
0q
0!!
1"!
1}
1~
1{
0|
1y
1z
1=
0x
1u
0-!
1v
0y
0{
0}
1!!
0"!
1#!
0r
0s
0#!
0A
1w
1/!
00!
0v
1A
0w
0/!
10!
#570000
0!
00
09
07
0:
#575000
1!
10
19
17
1:
1Q!
0=
1x
0u
1y
#580000
0!
00
09
07
0:
#585000
1!
10
19
17
1:
0Q!
1P!
0y
0z
1=
0x
1y
1z
1{
0{
#590000
0!
00
09
07
0:
#595000
1!
10
19
17
1:
1Q!
0=
1x
0y
0z
1{
#600000
0!
00
09
07
0:
#605000
1!
10
19
17
1:
0Q!
0P!
1O!
0{
1|
1y
1z
1=
0x
0y
1{
0|
1}
0}
#610000
0!
00
09
07
0:
#615000
1!
10
19
17
1:
1Q!
0=
1x
1y
#620000
0!
00
09
07
0:
#625000
1!
10
19
17
1:
0Q!
1P!
0y
0z
1=
0x
1y
1z
0{
1|
1}
1{
0|
0}
#630000
0!
00
09
07
0:
#635000
1!
10
19
17
1:
1Q!
0=
1x
0y
0z
0{
1|
1}
#640000
0!
00
09
07
0:
#645000
1!
10
19
17
1:
0Q!
0P!
0O!
1N!
0}
0~
1{
0|
1y
1z
1=
0x
0y
0{
1}
1~
0!!
1"!
1#!
1!!
0"!
0#!
#650000
0!
00
09
07
0:
#655000
1!
10
19
17
1:
1Q!
0=
1x
1y
#660000
0!
00
09
07
0:
#665000
1!
10
19
17
1:
0Q!
1P!
0y
0z
1=
0x
1y
1z
1{
0{
#670000
0!
00
09
07
0:
#675000
1!
10
19
17
1:
1Q!
0=
1x
0y
0z
1{
#680000
0!
00
09
07
0:
#685000
1!
10
19
17
1:
0Q!
0P!
1O!
0{
1|
1y
1z
1=
0x
0y
1{
0|
0}
0~
0!!
1"!
1}
1~
1!!
0"!
1#!
0#!
#690000
0!
00
09
07
0:
#695000
1!
10
19
17
1:
1Q!
0=
1x
1y
#700000
0!
00
09
07
0:
#705000
1!
10
19
17
1:
0Q!
1P!
0y
0z
1=
0x
1y
1z
0{
1|
0}
0~
1{
0|
1}
1~
0!!
1"!
1#!
1!!
0"!
0#!
#710000
0!
00
09
07
0:
#715000
1!
10
19
17
1:
1Q!
0=
1x
1-!
0y
0z
0{
1|
0}
0~
0!!
1"!
1#!
#720000
0!
00
09
07
0:
#725000
1!
10
19
17
1:
0Q!
0P!
0O!
0N!
0M!
1L!
0#!
0$!
1!!
0"!
1}
1~
1{
0|
1y
1z
1=
0x
1u
0-!
0y
0{
0}
0!!
1#!
1$!
1%!
0%!
#730000
0!
00
09
07
0:
#735000
1!
10
19
17
1:
1Q!
0=
1x
0u
1y
#740000
0!
00
09
07
0:
#745000
1!
10
19
17
1:
0Q!
1P!
0y
0z
1=
0x
1y
1z
1{
0{
#750000
0!
00
09
07
0:
#755000
1!
10
19
17
1:
1Q!
0=
1x
0y
0z
1{
#760000
0!
00
09
07
0:
#765000
1!
10
19
17
1:
0Q!
0P!
1O!
0{
1|
1y
1z
1=
0x
0y
1{
0|
1}
0}
#770000
0!
00
09
07
0:
#775000
1!
10
19
17
1:
1Q!
0=
1x
1y
#780000
0!
00
09
07
0:
#785000
1!
10
19
17
1:
0Q!
1P!
0y
0z
1=
0x
1y
1z
0{
1|
1}
1{
0|
0}
#790000
0!
00
09
07
0:
#795000
1!
10
19
17
1:
1Q!
0=
1x
0y
0z
0{
1|
1}
#800000
0!
00
09
07
0:
#805000
1!
10
19
17
1:
0Q!
0P!
0O!
1N!
0}
0~
1{
0|
1y
1z
1=
0x
0y
0{
1}
1~
1!!
0!!
#810000
0!
00
09
07
0:
#815000
1!
10
19
17
1:
1Q!
0=
1x
1y
#820000
0!
00
09
07
0:
#825000
1!
10
19
17
1:
0Q!
1P!
0y
0z
1=
0x
1y
1z
1{
0{
#830000
0!
00
09
07
0:
#835000
1!
10
19
17
1:
1Q!
0=
1x
0y
0z
1{
#840000
0!
00
09
07
0:
#845000
1!
10
19
17
1:
0Q!
0P!
1O!
0{
1|
1y
1z
1=
0x
0y
1{
0|
0}
0~
1!!
1}
1~
0!!
#850000
0!
00
09
07
0:
#855000
1!
10
19
17
1:
1Q!
0=
1x
1y
#860000
0!
00
09
07
0:
#865000
1!
10
19
17
1:
0Q!
1P!
0y
0z
1=
0x
1y
1z
0{
1|
0}
0~
1{
0|
1}
1~
1!!
0!!
#870000
0!
00
09
07
0:
#875000
1!
10
19
17
1:
1Q!
0=
1x
1-!
0y
0z
0{
1|
0}
0~
1!!
#880000
0!
00
09
07
0:
#885000
1!
10
19
17
1:
0Q!
0P!
0O!
0N!
1M!
0!!
1"!
1}
1~
1{
0|
1y
1z
1=
0x
1u
0-!
0y
0{
0}
1!!
0"!
0#!
0$!
1%!
1#!
1$!
0%!
#890000
0!
00
09
07
0:
#895000
1!
10
19
17
1:
1Q!
0=
1x
0u
1y
#900000
0!
00
09
07
0:
#905000
1!
10
19
17
1:
0Q!
1P!
0y
0z
1=
0x
1y
1z
1{
0{
#910000
0!
00
09
07
0:
#915000
1!
10
19
17
1:
1Q!
0=
1x
0y
0z
1{
#920000
0!
00
09
07
0:
#925000
1!
10
19
17
1:
0Q!
0P!
1O!
0{
1|
1y
1z
1=
0x
0y
1{
0|
1}
0}
#930000
0!
00
09
07
0:
#935000
1!
10
19
17
1:
1Q!
0=
1x
1y
#940000
0!
00
09
07
0:
#945000
1!
10
19
17
1:
0Q!
1P!
0y
0z
1=
0x
1y
1z
0{
1|
1}
1{
0|
0}
#950000
0!
00
09
07
0:
#955000
1!
10
19
17
1:
1Q!
0=
1x
0y
0z
0{
1|
1}
#960000
0!
00
09
07
0:
#965000
1!
10
19
17
1:
0Q!
0P!
0O!
1N!
0}
0~
1{
0|
1y
1z
1=
0x
0y
0{
1}
1~
0!!
1"!
0#!
0$!
1!!
0"!
1#!
1$!
1%!
0%!
#970000
0!
00
09
07
0:
#975000
1!
10
19
17
1:
1Q!
0=
1x
1y
#980000
0!
00
09
07
0:
#985000
1!
10
19
17
1:
0Q!
1P!
0y
0z
1=
0x
1y
1z
1{
0{
#990000
0!
00
09
07
0:
#995000
1!
10
19
17
1:
1Q!
0=
1x
0y
0z
1{
