LSD/praticas/P2/Parte2/simulation/qsim/Mux2_1Demo.msim.vcd
$comment
	File created using the following command:
		vcd file Mux2_1Demo.msim.vcd -direction
$end
$date
	Thu Feb 21 16:49:01 2019
$end
$version
	ModelSim Version 10.5b
$end
$timescale
	1ps
$end

$scope module mux2_1_vhd_vec_tst $end
$var wire 1 ! input0 $end
$var wire 1 " input1 $end
$var wire 1 # muxOut $end
$var wire 1 $ sel $end

$scope module i1 $end
$var wire 1 % gnd $end
$var wire 1 & vcc $end
$var wire 1 ' unknown $end
$var wire 1 ( devoe $end
$var wire 1 ) devclrn $end
$var wire 1 * devpor $end
$var wire 1 + ww_devoe $end
$var wire 1 , ww_devclrn $end
$var wire 1 - ww_devpor $end
$var wire 1 . ww_sel $end
$var wire 1 / ww_input0 $end
$var wire 1 0 ww_input1 $end
$var wire 1 1 ww_muxOut $end
$var wire 1 2 \muxOut~output_o\ $end
$var wire 1 3 \input1~input_o\ $end
$var wire 1 4 \input0~input_o\ $end
$var wire 1 5 \sel~input_o\ $end
$var wire 1 6 \muxOut~0_combout\ $end
$upscope $end
$upscope $end
$enddefinitions $end
#0
$dumpvars
1!
1"
1#
1$
0%
1&
x'
1(
1)
1*
1+
1,
1-
1.
1/
10
11
12
13
14
15
16
$end
#30000
0"
0$
00
0.
05
03
#60000
1"
10
13
#90000
0"
00
03
#120000
0!
0/
04
06
02
01
0#
#150000
1"
10
13
#180000
0"
1$
00
1.
15
03
#210000
0$
1!
0.
1/
14
05
16
12
11
1#
#240000
1$
0!
1.
0/
04
15
06
02
01
0#
#270000
0$
0.
05
#300000
1!
1"
1/
10
13
14
16
12
11
1#
#330000
0!
1$
0/
1.
15
04
#360000
0$
0.
05
06
02
01
0#
#390000
1$
1.
15
16
12
11
1#
#420000
0$
0"
0.
00
03
05
06
02
01
0#
#450000
1$
1.
15
#480000
0$
0.
05
#510000
1$
1.
15
#540000
0$
1"
0.
10
13
05
#570000
1$
0"
1!
1.
00
1/
14
03
15
#600000
1"
10
13
16
12
11
1#
#630000
0"
0$
0!
00
0.
0/
04
05
03
06
02
01
0#
#660000
1"
10
13
#690000
1!
1/
14
16
12
11
1#
#750000
0!
0"
1$
0/
00
1.
15
03
04
06
02
01
0#
#780000
1!
0$
1/
0.
05
14
16
12
11
1#
#810000
0!
1$
0/
1.
15
04
06
02
01
0#
#840000
0$
1"
0.
10
13
05
#930000
1$
1!
1.
1/
14
15
16
12
11
1#
#960000
0$
0"
0.
00
03
05
#990000
0!
0/
04
06
02
01
0#
