LSD/praticas/P3/Parte1/simulation/qsim/AdderDemo.msim.vcd
$comment
	File created using the following command:
		vcd file AdderDemo.msim.vcd -direction
$end
$date
	Tue Feb 26 15:58:09 2019
$end
$version
	ModelSim Version 10.5b
$end
$timescale
	1ps
$end

$scope module adder4_vhd_vec_tst $end
$var wire 1 ! a [3] $end
$var wire 1 " a [2] $end
$var wire 1 # a [1] $end
$var wire 1 $ a [0] $end
$var wire 1 % b [3] $end
$var wire 1 & b [2] $end
$var wire 1 ' b [1] $end
$var wire 1 ( b [0] $end
$var wire 1 ) cin $end
$var wire 1 * cout $end
$var wire 1 + s [3] $end
$var wire 1 , s [2] $end
$var wire 1 - s [1] $end
$var wire 1 . s [0] $end

$scope module i1 $end
$var wire 1 / gnd $end
$var wire 1 0 vcc $end
$var wire 1 1 unknown $end
$var wire 1 2 devoe $end
$var wire 1 3 devclrn $end
$var wire 1 4 devpor $end
$var wire 1 5 ww_devoe $end
$var wire 1 6 ww_devclrn $end
$var wire 1 7 ww_devpor $end
$var wire 1 8 ww_a [3] $end
$var wire 1 9 ww_a [2] $end
$var wire 1 : ww_a [1] $end
$var wire 1 ; ww_a [0] $end
$var wire 1 < ww_b [3] $end
$var wire 1 = ww_b [2] $end
$var wire 1 > ww_b [1] $end
$var wire 1 ? ww_b [0] $end
$var wire 1 @ ww_cin $end
$var wire 1 A ww_s [3] $end
$var wire 1 B ww_s [2] $end
$var wire 1 C ww_s [1] $end
$var wire 1 D ww_s [0] $end
$var wire 1 E ww_cout $end
$var wire 1 F \s[0]~output_o\ $end
$var wire 1 G \s[1]~output_o\ $end
$var wire 1 H \s[2]~output_o\ $end
$var wire 1 I \s[3]~output_o\ $end
$var wire 1 J \cout~output_o\ $end
$var wire 1 K \a[0]~input_o\ $end
$var wire 1 L \b[0]~input_o\ $end
$var wire 1 M \cin~input_o\ $end
$var wire 1 N \bit0|s~0_combout\ $end
$var wire 1 O \b[1]~input_o\ $end
$var wire 1 P \a[1]~input_o\ $end
$var wire 1 Q \bit0|cout~0_combout\ $end
$var wire 1 R \bit1|s~combout\ $end
$var wire 1 S \bit1|cout~0_combout\ $end
$var wire 1 T \a[2]~input_o\ $end
$var wire 1 U \b[2]~input_o\ $end
$var wire 1 V \bit2|s~combout\ $end
$var wire 1 W \bit2|cout~0_combout\ $end
$var wire 1 X \a[3]~input_o\ $end
$var wire 1 Y \b[3]~input_o\ $end
$var wire 1 Z \bit3|s~combout\ $end
$var wire 1 [ \bit3|cout~0_combout\ $end
$upscope $end
$upscope $end
$enddefinitions $end
#0
$dumpvars
0)
0*
0/
10
x1
12
13
14
15
16
17
0@
0E
0F
1G
1H
1I
0J
1K
1L
0M
0N
1O
1P
1Q
1R
1S
1T
1U
1V
1W
0X
0Y
1Z
0[
0!
1"
1#
1$
0%
1&
1'
1(
08
19
1:
1;
0<
1=
1>
1?
1A
1B
1C
0D
1+
1,
1-
0.
$end
#30000
0#
1%
0&
0(
0:
0?
0=
1<
1Y
0U
0L
0P
0R
1N
0Q
0V
0Z
1[
1R
0S
1V
0W
1J
0I
0H
1F
0G
1Z
0[
1E
0A
0B
1D
0C
1G
1*
1.
0-
0,
0+
1C
1H
1-
1B
0J
1I
1,
0E
1A
0*
1+
#60000
1#
0%
0"
0'
1:
09
0>
0<
0Y
0O
0T
1P
0V
0Z
0I
0H
0A
0B
0,
0+
#90000
0#
1%
1"
1'
1&
0$
0;
0:
19
1>
1=
1<
1Y
1U
1O
1T
0P
0K
0N
1W
1Z
0Z
1[
1I
0F
1A
0D
1J
0I
0.
1+
1E
0A
1*
0+
#120000
0'
0&
0>
0=
0U
0O
0R
1V
0W
1Z
0[
1H
0G
1B
0C
0J
1I
0-
1,
0E
1A
0*
1+
#150000
1'
1&
1#
1$
1(
1?
1>
1=
1;
1:
1P
1K
1U
1O
1L
0V
1W
1Q
1S
1V
1R
0Z
1[
0H
0B
1J
0I
1G
1H
0,
1E
0A
1C
1B
1*
1-
1,
0+
#180000
1!
18
1X
1Z
1I
1A
1+
#210000
0!
0'
0$
0%
0"
0;
09
08
0>
0<
0Y
0O
0X
0T
0K
1N
0Q
0V
0R
0[
1R
0S
1V
0W
0J
0G
0H
1F
0Z
0E
0C
0B
1D
1G
0*
1.
0-
0,
1C
1H
1-
1B
0I
1,
0A
0+
#240000
1!
1$
1%
1;
18
1<
1Y
1X
1K
0N
1Q
1[
0R
1S
0V
1W
1J
0F
1Z
1E
0D
0G
1*
0.
0C
0H
0-
0B
1I
0,
1A
1+
#270000
1'
0&
0#
0(
0?
1>
0=
0:
0P
0U
1O
0L
1N
0Q
1V
0W
0Z
1R
0S
0V
1H
1F
1B
1D
1G
0I
1.
1,
1C
0A
0H
1-
0+
0B
0,
#300000
0'
1&
1#
1(
0%
1"
1?
0>
1=
0<
1:
19
1T
1P
0Y
1U
0O
1L
0N
1Q
1Z
0[
1W
0Z
1[
0R
1S
1V
0J
1I
0F
0E
1A
0D
0G
1J
0I
0*
0.
1+
0C
1E
0A
1H
0-
0+
1*
1B
1,
#330000
1'
0&
0(
1%
0"
0!
0$
0?
1>
0=
1<
0;
09
08
0X
0T
0K
1Y
0U
1O
0L
1R
0Q
0W
1Z
0[
0R
1G
1C
0G
0J
1I
1-
0C
0E
1A
0-
1+
0*
#360000
1(
0%
1"
0#
1?
0<
0:
19
1T
0P
0Y
1L
1N
0Z
1R
0S
0V
1W
1Z
1V
0W
0Z
0H
1G
0I
1F
0B
1C
0A
1D
1H
1I
1.
1-
0,
0+
1B
1A
0I
1,
1+
0A
0+
#390000
0(
1%
0"
1#
1&
0?
1=
1<
1:
09
0T
1P
1Y
1U
0L
0N
1Z
0R
1S
0V
1W
0Z
1[
0G
1I
0F
0C
1A
0D
0H
0.
0-
1+
0B
1J
0I
0,
1E
0A
1*
0+
#420000
1(
1"
0#
0&
0'
1$
1?
0>
0=
1;
0:
19
1T
0P
1K
0U
0O
1L
1Q
0S
1V
0W
1R
1Z
0[
1G
1H
1C
1B
0J
1I
1-
1,
0E
1A
0*
1+
#450000
0(
1'
0?
1>
1O
0L
1N
0Q
0R
1S
0V
1W
1R
0S
1V
0W
0Z
1[
0G
1F
1Z
0[
0C
1D
1G
0H
1.
0-
1C
0B
1J
0I
1H
1-
0,
1E
0A
1B
0J
1I
1*
1,
0+
0E
1A
0*
1+
#480000
0'
1#
1&
0%
0>
1=
0<
1:
1P
0Y
1U
0O
0V
1W
0Z
1Z
0I
0H
0A
0B
1I
0,
0+
1A
1+
#510000
1'
0&
1(
0$
1!
1?
1>
0=
0;
18
1X
0K
0U
1O
1L
0R
1S
1V
0W
0Z
1[
1Z
0[
0V
1W
0Z
1[
1J
0I
1H
0G
1E
0A
1B
0C
0H
0J
1I
1*
0-
1,
0+
0B
0E
1A
1J
0I
0,
1+
0*
1E
0A
1*
0+
#540000
1&
1%
1=
1<
1Y
1U
1V
1Z
1I
1H
1A
1B
1,
1+
#570000
0&
1$
0#
0"
0=
1;
0:
09
0T
0P
1K
0U
0N
1Q
1R
0S
0W
0Z
0V
0R
1S
1V
1G
0F
1C
0D
0G
0H
0I
0.
1-
0C
0B
0A
1H
0-
0,
0+
1B
1,
#600000
0$
1"
0'
0(
0!
0;
19
08
0?
0>
0O
0L
0X
1T
0K
0V
1W
1Z
0[
0Q
1R
0S
1V
0W
0R
0Z
1[
1Z
0[
1G
0J
1I
0H
1C
0E
1A
0B
1J
0I
0G
1H
1-
0,
1+
0*
1E
0A
0C
1B
0J
1I
1*
0-
1,
0+
0E
1A
0*
1+
#630000
1$
1'
1(
1!
1;
18
1?
1>
1O
1L
1X
1K
0Z
1[
1Q
1R
0R
1S
0V
1W
1G
1J
0I
1Z
1C
1E
0A
0G
1-
0+
1*
0C
0H
0-
0B
1I
0,
1A
1+
#660000
0(
0"
1&
1#
0?
1=
1:
09
0T
1P
1U
0L
1N
0Q
1R
0R
1G
1F
1C
1D
0G
1.
1-
0C
0-
#690000
1(
1"
0#
0'
0%
1?
0>
0<
0:
19
1T
0P
0Y
0O
1L
0N
1Q
0Z
0S
1V
0V
1R
1H
0I
0F
1B
0A
0D
1G
0H
0.
1,
0+
1C
0B
1-
0,
#720000
0"
1#
1:
09
0T
1P
0R
1S
1V
0W
1Z
0[
0V
1W
0Z
1[
1H
0G
1B
0C
0H
0J
1I
0-
1,
0B
0E
1A
1J
0I
0,
1+
0*
1E
0A
1*
0+
#750000
1'
1%
0&
1>
0=
1<
1Y
0U
1O
1R
1V
0W
1Z
0Z
1I
1H
1G
1A
1B
1C
0I
1-
1,
1+
0A
0+
#780000
0'
0(
0$
0?
0>
0;
0K
0O
0L
0R
0Q
1R
0S
0V
0G
0C
1G
0-
1C
0H
1-
0B
0,
#810000
0%
0#
0!
0<
0:
08
0X
0P
0Y
0R
0[
0J
0G
0E
0C
0*
0-
#840000
1%
1#
1'
1(
1$
1?
1>
1<
1;
1:
1P
1K
1Y
1O
1L
1Z
1Q
1S
1V
1R
1I
1A
1G
1H
1+
1C
1B
1-
1,
#870000
0$
1!
1&
1"
0;
19
18
1=
1U
1X
1T
0K
1N
0Q
0Z
1[
1W
1Z
0R
1J
0I
1F
1E
0A
1D
0G
1I
1*
1.
0+
0C
1A
0-
1+
#900000
1$
0!
0&
0%
0#
0'
0(
1;
0:
08
0?
0>
0=
0<
0Y
0U
0O
0L
0X
0P
1K
0S
0V
0[
1V
0W
0Z
0J
0H
0E
0B
1H
0*
0,
1B
0I
1,
0A
0+
#930000
1&
0"
1=
09
0T
1U
#960000
1"
0$
1!
1'
1(
0;
19
18
1?
1>
1O
1L
1X
1T
0K
0V
1W
1Z
1R
0Z
1[
1G
1I
0H
1C
1A
0B
1J
0I
1-
0,
1+
1E
0A
1*
0+
#990000
0"
0!
0'
0(
1#
1:
09
08
0?
0>
0O
0L
0X
0T
1P
1V
0W
1Z
0[
0N
0Z
0F
0J
1I
1H
0D
0E
1A
1B
0I
0.
1,
1+
0*
0A
0+
