LSD/praticas/P6/Parte1/simulation/qsim/ShiftRegister_Demo.msim.vcd
$comment
	File created using the following command:
		vcd file ShiftRegister_Demo.msim.vcd -direction
$end
$date
	Tue Apr 09 13:58:17 2019
$end
$version
	ModelSim Version 10.5b
$end
$timescale
	1ps
$end

$scope module shiftregister4_vhd_vec_tst $end
$var wire 1 ! clk $end
$var wire 1 " dataIn $end
$var wire 1 # dataOut [3] $end
$var wire 1 $ dataOut [2] $end
$var wire 1 % dataOut [1] $end
$var wire 1 & dataOut [0] $end

$scope module i1 $end
$var wire 1 ' gnd $end
$var wire 1 ( vcc $end
$var wire 1 ) unknown $end
$var wire 1 * devoe $end
$var wire 1 + devclrn $end
$var wire 1 , devpor $end
$var wire 1 - ww_devoe $end
$var wire 1 . ww_devclrn $end
$var wire 1 / ww_devpor $end
$var wire 1 0 ww_clk $end
$var wire 1 1 ww_dataIn $end
$var wire 1 2 ww_dataOut [3] $end
$var wire 1 3 ww_dataOut [2] $end
$var wire 1 4 ww_dataOut [1] $end
$var wire 1 5 ww_dataOut [0] $end
$var wire 1 6 \dataOut[0]~output_o\ $end
$var wire 1 7 \dataOut[1]~output_o\ $end
$var wire 1 8 \dataOut[2]~output_o\ $end
$var wire 1 9 \dataOut[3]~output_o\ $end
$var wire 1 : \clk~input_o\ $end
$var wire 1 ; \dataIn~input_o\ $end
$var wire 1 < s_shiftReg [3] $end
$var wire 1 = s_shiftReg [2] $end
$var wire 1 > s_shiftReg [1] $end
$var wire 1 ? s_shiftReg [0] $end
$upscope $end
$upscope $end
$enddefinitions $end
#0
$dumpvars
0!
0"
0'
1(
x)
1*
1+
1,
1-
1.
1/
00
01
06
07
08
09
0:
0;
02
03
04
05
0<
0=
0>
0?
0#
0$
0%
0&
$end
#5000
1!
10
1:
#10000
0!
1"
00
11
1;
0:
#15000
1!
10
1:
1?
16
15
1&
#20000
0!
0"
00
01
0;
0:
#25000
1!
10
1:
0?
1>
17
06
14
05
0&
1%
#30000
0!
00
0:
#35000
1!
10
1:
0>
1=
18
07
13
04
0%
1$
#40000
0!
00
0:
#45000
1!
10
1:
0=
1<
19
08
12
03
0$
1#
#50000
0!
1"
00
11
1;
0:
#55000
1!
10
1:
1?
0<
09
16
02
15
1&
0#
#60000
0!
00
0:
#65000
1!
10
1:
1>
17
14
1%
#70000
0!
00
0:
#75000
1!
10
1:
1=
18
13
1$
#80000
0!
0"
00
01
0;
0:
#85000
1!
10
1:
0?
1<
19
06
12
05
0&
1#
#90000
0!
00
0:
#95000
1!
10
1:
0>
07
04
0%
#100000
0!
00
0:
#105000
1!
10
1:
0=
08
03
0$
#110000
0!
00
0:
#115000
1!
10
1:
0<
09
02
0#
#120000
0!
00
0:
#125000
1!
10
1:
#130000
0!
00
0:
#135000
1!
10
1:
#140000
0!
00
0:
#145000
1!
10
1:
#150000
0!
00
0:
#155000
1!
10
1:
#160000
0!
00
0:
#165000
1!
10
1:
#170000
0!
00
0:
#175000
1!
10
1:
#180000
0!
00
0:
#185000
1!
10
1:
#190000
0!
00
0:
#195000
1!
10
1:
#200000
0!
00
0:
#205000
1!
10
1:
#210000
0!
00
0:
#215000
1!
10
1:
#220000
0!
00
0:
#225000
1!
10
1:
#230000
0!
00
0:
#235000
1!
10
1:
#240000
0!
00
0:
#245000
1!
10
1:
#250000
0!
00
0:
#255000
1!
10
1:
#260000
0!
00
0:
#265000
1!
10
1:
#270000
0!
00
0:
#275000
1!
10
1:
#280000
0!
00
0:
#285000
1!
10
1:
#290000
0!
00
0:
#295000
1!
10
1:
#300000
0!
00
0:
#305000
1!
10
1:
#310000
0!
00
0:
#315000
1!
10
1:
#320000
0!
00
0:
#325000
1!
10
1:
#330000
0!
00
0:
#335000
1!
10
1:
#340000
0!
00
0:
#345000
1!
10
1:
#350000
0!
00
0:
#355000
1!
10
1:
#360000
0!
00
0:
#365000
1!
10
1:
#370000
0!
00
0:
#375000
1!
10
1:
#380000
0!
00
0:
#385000
1!
10
1:
#390000
0!
00
0:
#395000
1!
10
1:
#400000
0!
00
0:
#405000
1!
10
1:
#410000
0!
00
0:
#415000
1!
10
1:
#420000
0!
00
0:
#425000
1!
10
1:
#430000
0!
00
0:
#435000
1!
10
1:
#440000
0!
00
0:
#445000
1!
10
1:
#450000
0!
00
0:
#455000
1!
10
1:
#460000
0!
00
0:
#465000
1!
10
1:
#470000
0!
00
0:
#475000
1!
10
1:
#480000
0!
00
0:
#485000
1!
10
1:
#490000
0!
00
0:
#495000
1!
10
1:
#500000
0!
00
0:
#505000
1!
10
1:
#510000
0!
00
0:
#515000
1!
10
1:
#520000
0!
00
0:
#525000
1!
10
1:
#530000
0!
00
0:
#535000
1!
10
1:
#540000
0!
00
0:
#545000
1!
10
1:
#550000
0!
00
0:
#555000
1!
10
1:
#560000
0!
00
0:
#565000
1!
10
1:
#570000
0!
00
0:
#575000
1!
10
1:
#580000
0!
00
0:
#585000
1!
10
1:
#590000
0!
00
0:
#595000
1!
10
1:
#600000
0!
00
0:
#605000
1!
10
1:
#610000
0!
00
0:
#615000
1!
10
1:
#620000
0!
00
0:
#625000
1!
10
1:
#630000
0!
00
0:
#635000
1!
10
1:
#640000
0!
00
0:
#645000
1!
10
1:
#650000
0!
00
0:
#655000
1!
10
1:
#660000
0!
00
0:
#665000
1!
10
1:
#670000
0!
00
0:
#675000
1!
10
1:
#680000
0!
00
0:
#685000
1!
10
1:
#690000
0!
00
0:
#695000
1!
10
1:
#700000
0!
00
0:
#705000
1!
10
1:
#710000
0!
00
0:
#715000
1!
10
1:
#720000
0!
00
0:
#725000
1!
10
1:
#730000
0!
00
0:
#735000
1!
10
1:
#740000
0!
00
0:
#745000
1!
10
1:
#750000
0!
00
0:
#755000
1!
10
1:
#760000
0!
00
0:
#765000
1!
10
1:
#770000
0!
00
0:
#775000
1!
10
1:
#780000
0!
00
0:
#785000
1!
10
1:
#790000
0!
00
0:
#795000
1!
10
1:
#800000
0!
00
0:
#805000
1!
10
1:
#810000
0!
00
0:
#815000
1!
10
1:
#820000
0!
00
0:
#825000
1!
10
1:
#830000
0!
00
0:
#835000
1!
10
1:
#840000
0!
00
0:
#845000
1!
10
1:
#850000
0!
00
0:
#855000
1!
10
1:
#860000
0!
00
0:
#865000
1!
10
1:
#870000
0!
00
0:
#875000
1!
10
1:
#880000
0!
00
0:
#885000
1!
10
1:
#890000
0!
00
0:
#895000
1!
10
1:
#900000
0!
00
0:
#905000
1!
10
1:
#910000
0!
00
0:
#915000
1!
10
1:
#920000
0!
00
0:
#925000
1!
10
1:
#930000
0!
00
0:
#935000
1!
10
1:
#940000
0!
00
0:
#945000
1!
10
1:
#950000
0!
00
0:
#955000
1!
10
1:
#960000
0!
00
0:
#965000
1!
10
1:
#970000
0!
00
0:
#975000
1!
10
1:
#980000
0!
00
0:
#985000
1!
10
1:
#990000
0!
00
0:
#995000
1!
10
1:
