LSD/praticas/P4/Parte5/simulation/qsim/FreqDivider_Demo.msim.vcd
$comment
	File created using the following command:
		vcd file FreqDivider_Demo.msim.vcd -direction
$end
$date
	Tue Mar 26 15:33:27 2019
$end
$version
	ModelSim Version 10.5b
$end
$timescale
	1ps
$end

$scope module freqdivider_vhd_vec_tst $end
$var wire 1 ! clkIn $end
$var wire 1 " clkOut $end
$var wire 1 # k [31] $end
$var wire 1 $ k [30] $end
$var wire 1 % k [29] $end
$var wire 1 & k [28] $end
$var wire 1 ' k [27] $end
$var wire 1 ( k [26] $end
$var wire 1 ) k [25] $end
$var wire 1 * k [24] $end
$var wire 1 + k [23] $end
$var wire 1 , k [22] $end
$var wire 1 - k [21] $end
$var wire 1 . k [20] $end
$var wire 1 / k [19] $end
$var wire 1 0 k [18] $end
$var wire 1 1 k [17] $end
$var wire 1 2 k [16] $end
$var wire 1 3 k [15] $end
$var wire 1 4 k [14] $end
$var wire 1 5 k [13] $end
$var wire 1 6 k [12] $end
$var wire 1 7 k [11] $end
$var wire 1 8 k [10] $end
$var wire 1 9 k [9] $end
$var wire 1 : k [8] $end
$var wire 1 ; k [7] $end
$var wire 1 < k [6] $end
$var wire 1 = k [5] $end
$var wire 1 > k [4] $end
$var wire 1 ? k [3] $end
$var wire 1 @ k [2] $end
$var wire 1 A k [1] $end
$var wire 1 B k [0] $end

$scope module i1 $end
$var wire 1 C gnd $end
$var wire 1 D vcc $end
$var wire 1 E unknown $end
$var wire 1 F devoe $end
$var wire 1 G devclrn $end
$var wire 1 H devpor $end
$var wire 1 I ww_devoe $end
$var wire 1 J ww_devclrn $end
$var wire 1 K ww_devpor $end
$var wire 1 L ww_clkIn $end
$var wire 1 M ww_k [31] $end
$var wire 1 N ww_k [30] $end
$var wire 1 O ww_k [29] $end
$var wire 1 P ww_k [28] $end
$var wire 1 Q ww_k [27] $end
$var wire 1 R ww_k [26] $end
$var wire 1 S ww_k [25] $end
$var wire 1 T ww_k [24] $end
$var wire 1 U ww_k [23] $end
$var wire 1 V ww_k [22] $end
$var wire 1 W ww_k [21] $end
$var wire 1 X ww_k [20] $end
$var wire 1 Y ww_k [19] $end
$var wire 1 Z ww_k [18] $end
$var wire 1 [ ww_k [17] $end
$var wire 1 \ ww_k [16] $end
$var wire 1 ] ww_k [15] $end
$var wire 1 ^ ww_k [14] $end
$var wire 1 _ ww_k [13] $end
$var wire 1 ` ww_k [12] $end
$var wire 1 a ww_k [11] $end
$var wire 1 b ww_k [10] $end
$var wire 1 c ww_k [9] $end
$var wire 1 d ww_k [8] $end
$var wire 1 e ww_k [7] $end
$var wire 1 f ww_k [6] $end
$var wire 1 g ww_k [5] $end
$var wire 1 h ww_k [4] $end
$var wire 1 i ww_k [3] $end
$var wire 1 j ww_k [2] $end
$var wire 1 k ww_k [1] $end
$var wire 1 l ww_k [0] $end
$var wire 1 m ww_clkOut $end
$var wire 1 n \clkOut~output_o\ $end
$var wire 1 o \clkIn~input_o\ $end
$var wire 1 p \s_counter[0]~32_combout\ $end
$var wire 1 q \k[0]~input_o\ $end
$var wire 1 r \Add1~0_combout\ $end
$var wire 1 s \k[1]~input_o\ $end
$var wire 1 t \Add1~1\ $end
$var wire 1 u \Add1~2_combout\ $end
$var wire 1 v \s_counter[0]~33\ $end
$var wire 1 w \s_counter[1]~35_combout\ $end
$var wire 1 x \Equal1~0_combout\ $end
$var wire 1 y \k[2]~input_o\ $end
$var wire 1 z \Add1~3\ $end
$var wire 1 { \Add1~4_combout\ $end
$var wire 1 | \k[3]~input_o\ $end
$var wire 1 } \Add1~5\ $end
$var wire 1 ~ \Add1~6_combout\ $end
$var wire 1 !! \s_counter[1]~36\ $end
$var wire 1 "! \s_counter[2]~37_combout\ $end
$var wire 1 #! \s_counter[2]~38\ $end
$var wire 1 $! \s_counter[3]~39_combout\ $end
$var wire 1 %! \Equal1~1_combout\ $end
$var wire 1 &! \k[4]~input_o\ $end
$var wire 1 '! \Add1~7\ $end
$var wire 1 (! \Add1~8_combout\ $end
$var wire 1 )! \k[5]~input_o\ $end
$var wire 1 *! \Add1~9\ $end
$var wire 1 +! \Add1~10_combout\ $end
$var wire 1 ,! \s_counter[3]~40\ $end
$var wire 1 -! \s_counter[4]~41_combout\ $end
$var wire 1 .! \s_counter[4]~42\ $end
$var wire 1 /! \s_counter[5]~43_combout\ $end
$var wire 1 0! \Equal1~2_combout\ $end
$var wire 1 1! \k[6]~input_o\ $end
$var wire 1 2! \Add1~11\ $end
$var wire 1 3! \Add1~12_combout\ $end
$var wire 1 4! \k[7]~input_o\ $end
$var wire 1 5! \Add1~13\ $end
$var wire 1 6! \Add1~14_combout\ $end
$var wire 1 7! \s_counter[5]~44\ $end
$var wire 1 8! \s_counter[6]~45_combout\ $end
$var wire 1 9! \s_counter[6]~46\ $end
$var wire 1 :! \s_counter[7]~47_combout\ $end
$var wire 1 ;! \Equal1~3_combout\ $end
$var wire 1 <! \Equal1~4_combout\ $end
$var wire 1 =! \k[8]~input_o\ $end
$var wire 1 >! \Add1~15\ $end
$var wire 1 ?! \Add1~16_combout\ $end
$var wire 1 @! \k[9]~input_o\ $end
$var wire 1 A! \Add1~17\ $end
$var wire 1 B! \Add1~18_combout\ $end
$var wire 1 C! \s_counter[7]~48\ $end
$var wire 1 D! \s_counter[8]~49_combout\ $end
$var wire 1 E! \s_counter[8]~50\ $end
$var wire 1 F! \s_counter[9]~51_combout\ $end
$var wire 1 G! \Equal1~5_combout\ $end
$var wire 1 H! \k[10]~input_o\ $end
$var wire 1 I! \Add1~19\ $end
$var wire 1 J! \Add1~20_combout\ $end
$var wire 1 K! \k[11]~input_o\ $end
$var wire 1 L! \Add1~21\ $end
$var wire 1 M! \Add1~22_combout\ $end
$var wire 1 N! \s_counter[9]~52\ $end
$var wire 1 O! \s_counter[10]~53_combout\ $end
$var wire 1 P! \s_counter[10]~54\ $end
$var wire 1 Q! \s_counter[11]~55_combout\ $end
$var wire 1 R! \Equal1~6_combout\ $end
$var wire 1 S! \k[12]~input_o\ $end
$var wire 1 T! \Add1~23\ $end
$var wire 1 U! \Add1~24_combout\ $end
$var wire 1 V! \k[13]~input_o\ $end
$var wire 1 W! \Add1~25\ $end
$var wire 1 X! \Add1~26_combout\ $end
$var wire 1 Y! \s_counter[11]~56\ $end
$var wire 1 Z! \s_counter[12]~57_combout\ $end
$var wire 1 [! \s_counter[12]~58\ $end
$var wire 1 \! \s_counter[13]~59_combout\ $end
$var wire 1 ]! \Equal1~7_combout\ $end
$var wire 1 ^! \k[14]~input_o\ $end
$var wire 1 _! \Add1~27\ $end
$var wire 1 `! \Add1~28_combout\ $end
$var wire 1 a! \k[15]~input_o\ $end
$var wire 1 b! \Add1~29\ $end
$var wire 1 c! \Add1~30_combout\ $end
$var wire 1 d! \s_counter[13]~60\ $end
$var wire 1 e! \s_counter[14]~61_combout\ $end
$var wire 1 f! \s_counter[14]~62\ $end
$var wire 1 g! \s_counter[15]~63_combout\ $end
$var wire 1 h! \Equal1~8_combout\ $end
$var wire 1 i! \Equal1~9_combout\ $end
$var wire 1 j! \k[16]~input_o\ $end
$var wire 1 k! \Add1~31\ $end
$var wire 1 l! \Add1~32_combout\ $end
$var wire 1 m! \k[17]~input_o\ $end
$var wire 1 n! \Add1~33\ $end
$var wire 1 o! \Add1~34_combout\ $end
$var wire 1 p! \s_counter[15]~64\ $end
$var wire 1 q! \s_counter[16]~65_combout\ $end
$var wire 1 r! \s_counter[16]~66\ $end
$var wire 1 s! \s_counter[17]~67_combout\ $end
$var wire 1 t! \Equal1~10_combout\ $end
$var wire 1 u! \k[18]~input_o\ $end
$var wire 1 v! \Add1~35\ $end
$var wire 1 w! \Add1~36_combout\ $end
$var wire 1 x! \k[19]~input_o\ $end
$var wire 1 y! \Add1~37\ $end
$var wire 1 z! \Add1~38_combout\ $end
$var wire 1 {! \s_counter[17]~68\ $end
$var wire 1 |! \s_counter[18]~69_combout\ $end
$var wire 1 }! \s_counter[18]~70\ $end
$var wire 1 ~! \s_counter[19]~71_combout\ $end
$var wire 1 !" \Equal1~11_combout\ $end
$var wire 1 "" \k[20]~input_o\ $end
$var wire 1 #" \Add1~39\ $end
$var wire 1 $" \Add1~40_combout\ $end
$var wire 1 %" \k[21]~input_o\ $end
$var wire 1 &" \Add1~41\ $end
$var wire 1 '" \Add1~42_combout\ $end
$var wire 1 (" \s_counter[19]~72\ $end
$var wire 1 )" \s_counter[20]~73_combout\ $end
$var wire 1 *" \s_counter[20]~74\ $end
$var wire 1 +" \s_counter[21]~75_combout\ $end
$var wire 1 ," \Equal1~12_combout\ $end
$var wire 1 -" \k[22]~input_o\ $end
$var wire 1 ." \Add1~43\ $end
$var wire 1 /" \Add1~44_combout\ $end
$var wire 1 0" \k[23]~input_o\ $end
$var wire 1 1" \Add1~45\ $end
$var wire 1 2" \Add1~46_combout\ $end
$var wire 1 3" \s_counter[21]~76\ $end
$var wire 1 4" \s_counter[22]~77_combout\ $end
$var wire 1 5" \s_counter[22]~78\ $end
$var wire 1 6" \s_counter[23]~79_combout\ $end
$var wire 1 7" \Equal1~13_combout\ $end
$var wire 1 8" \Equal1~14_combout\ $end
$var wire 1 9" \k[24]~input_o\ $end
$var wire 1 :" \Add1~47\ $end
$var wire 1 ;" \Add1~48_combout\ $end
$var wire 1 <" \k[25]~input_o\ $end
$var wire 1 =" \Add1~49\ $end
$var wire 1 >" \Add1~50_combout\ $end
$var wire 1 ?" \s_counter[23]~80\ $end
$var wire 1 @" \s_counter[24]~81_combout\ $end
$var wire 1 A" \s_counter[24]~82\ $end
$var wire 1 B" \s_counter[25]~83_combout\ $end
$var wire 1 C" \Equal1~15_combout\ $end
$var wire 1 D" \k[26]~input_o\ $end
$var wire 1 E" \Add1~51\ $end
$var wire 1 F" \Add1~52_combout\ $end
$var wire 1 G" \k[27]~input_o\ $end
$var wire 1 H" \Add1~53\ $end
$var wire 1 I" \Add1~54_combout\ $end
$var wire 1 J" \s_counter[25]~84\ $end
$var wire 1 K" \s_counter[26]~85_combout\ $end
$var wire 1 L" \s_counter[26]~86\ $end
$var wire 1 M" \s_counter[27]~87_combout\ $end
$var wire 1 N" \Equal1~16_combout\ $end
$var wire 1 O" \k[28]~input_o\ $end
$var wire 1 P" \Add1~55\ $end
$var wire 1 Q" \Add1~56_combout\ $end
$var wire 1 R" \k[29]~input_o\ $end
$var wire 1 S" \Add1~57\ $end
$var wire 1 T" \Add1~58_combout\ $end
$var wire 1 U" \s_counter[27]~88\ $end
$var wire 1 V" \s_counter[28]~89_combout\ $end
$var wire 1 W" \s_counter[28]~90\ $end
$var wire 1 X" \s_counter[29]~91_combout\ $end
$var wire 1 Y" \Equal1~17_combout\ $end
$var wire 1 Z" \k[30]~input_o\ $end
$var wire 1 [" \Add1~59\ $end
$var wire 1 \" \Add1~60_combout\ $end
$var wire 1 ]" \k[31]~input_o\ $end
$var wire 1 ^" \Add1~61\ $end
$var wire 1 _" \Add1~62_combout\ $end
$var wire 1 `" \s_counter[29]~92\ $end
$var wire 1 a" \s_counter[30]~93_combout\ $end
$var wire 1 b" \s_counter[30]~94\ $end
$var wire 1 c" \s_counter[31]~95_combout\ $end
$var wire 1 d" \Equal1~18_combout\ $end
$var wire 1 e" \Equal1~19_combout\ $end
$var wire 1 f" \Equal1~20_combout\ $end
$var wire 1 g" \s_counter~34_combout\ $end
$var wire 1 h" \Add0~1\ $end
$var wire 1 i" \Add0~2_combout\ $end
$var wire 1 j" \Add0~0_combout\ $end
$var wire 1 k" \Equal0~0_combout\ $end
$var wire 1 l" \Add0~3\ $end
$var wire 1 m" \Add0~5\ $end
$var wire 1 n" \Add0~6_combout\ $end
$var wire 1 o" \Add0~4_combout\ $end
$var wire 1 p" \Equal0~1_combout\ $end
$var wire 1 q" \Add0~7\ $end
$var wire 1 r" \Add0~9\ $end
$var wire 1 s" \Add0~10_combout\ $end
$var wire 1 t" \Add0~8_combout\ $end
$var wire 1 u" \Equal0~2_combout\ $end
$var wire 1 v" \Add0~11\ $end
$var wire 1 w" \Add0~13\ $end
$var wire 1 x" \Add0~14_combout\ $end
$var wire 1 y" \Add0~12_combout\ $end
$var wire 1 z" \Equal0~3_combout\ $end
$var wire 1 {" \Equal0~4_combout\ $end
$var wire 1 |" \Add0~15\ $end
$var wire 1 }" \Add0~17\ $end
$var wire 1 ~" \Add0~18_combout\ $end
$var wire 1 !# \Add0~16_combout\ $end
$var wire 1 "# \Equal0~5_combout\ $end
$var wire 1 ## \Add0~19\ $end
$var wire 1 $# \Add0~21\ $end
$var wire 1 %# \Add0~22_combout\ $end
$var wire 1 &# \Add0~20_combout\ $end
$var wire 1 '# \Equal0~6_combout\ $end
$var wire 1 (# \Add0~23\ $end
$var wire 1 )# \Add0~25\ $end
$var wire 1 *# \Add0~26_combout\ $end
$var wire 1 +# \Add0~24_combout\ $end
$var wire 1 ,# \Equal0~7_combout\ $end
$var wire 1 -# \Add0~27\ $end
$var wire 1 .# \Add0~29\ $end
$var wire 1 /# \Add0~30_combout\ $end
$var wire 1 0# \Add0~28_combout\ $end
$var wire 1 1# \Equal0~8_combout\ $end
$var wire 1 2# \Equal0~9_combout\ $end
$var wire 1 3# \Add0~31\ $end
$var wire 1 4# \Add0~33\ $end
$var wire 1 5# \Add0~34_combout\ $end
$var wire 1 6# \Add0~32_combout\ $end
$var wire 1 7# \Equal0~10_combout\ $end
$var wire 1 8# \Add0~35\ $end
$var wire 1 9# \Add0~37\ $end
$var wire 1 :# \Add0~38_combout\ $end
$var wire 1 ;# \Add0~36_combout\ $end
$var wire 1 <# \Equal0~11_combout\ $end
$var wire 1 =# \Add0~39\ $end
$var wire 1 ># \Add0~41\ $end
$var wire 1 ?# \Add0~42_combout\ $end
$var wire 1 @# \Add0~40_combout\ $end
$var wire 1 A# \Equal0~12_combout\ $end
$var wire 1 B# \Add0~43\ $end
$var wire 1 C# \Add0~45\ $end
$var wire 1 D# \Add0~46_combout\ $end
$var wire 1 E# \Add0~44_combout\ $end
$var wire 1 F# \Equal0~13_combout\ $end
$var wire 1 G# \Equal0~14_combout\ $end
$var wire 1 H# \Add0~47\ $end
$var wire 1 I# \Add0~49\ $end
$var wire 1 J# \Add0~50_combout\ $end
$var wire 1 K# \Add0~48_combout\ $end
$var wire 1 L# \Equal0~15_combout\ $end
$var wire 1 M# \Add0~51\ $end
$var wire 1 N# \Add0~53\ $end
$var wire 1 O# \Add0~54_combout\ $end
$var wire 1 P# \Add0~52_combout\ $end
$var wire 1 Q# \Equal0~16_combout\ $end
$var wire 1 R# \Add0~55\ $end
$var wire 1 S# \Add0~57\ $end
$var wire 1 T# \Add0~58_combout\ $end
$var wire 1 U# \Add0~56_combout\ $end
$var wire 1 V# \Equal0~17_combout\ $end
$var wire 1 W# \Add0~59\ $end
$var wire 1 X# \Add0~61\ $end
$var wire 1 Y# \Add0~62_combout\ $end
$var wire 1 Z# \Add0~60_combout\ $end
$var wire 1 [# \Equal0~18_combout\ $end
$var wire 1 \# \Equal0~19_combout\ $end
$var wire 1 ]# \Equal0~20_combout\ $end
$var wire 1 ^# \clkOut~0_combout\ $end
$var wire 1 _# \clkOut~reg0_q\ $end
$var wire 1 `# s_counter [31] $end
$var wire 1 a# s_counter [30] $end
$var wire 1 b# s_counter [29] $end
$var wire 1 c# s_counter [28] $end
$var wire 1 d# s_counter [27] $end
$var wire 1 e# s_counter [26] $end
$var wire 1 f# s_counter [25] $end
$var wire 1 g# s_counter [24] $end
$var wire 1 h# s_counter [23] $end
$var wire 1 i# s_counter [22] $end
$var wire 1 j# s_counter [21] $end
$var wire 1 k# s_counter [20] $end
$var wire 1 l# s_counter [19] $end
$var wire 1 m# s_counter [18] $end
$var wire 1 n# s_counter [17] $end
$var wire 1 o# s_counter [16] $end
$var wire 1 p# s_counter [15] $end
$var wire 1 q# s_counter [14] $end
$var wire 1 r# s_counter [13] $end
$var wire 1 s# s_counter [12] $end
$var wire 1 t# s_counter [11] $end
$var wire 1 u# s_counter [10] $end
$var wire 1 v# s_counter [9] $end
$var wire 1 w# s_counter [8] $end
$var wire 1 x# s_counter [7] $end
$var wire 1 y# s_counter [6] $end
$var wire 1 z# s_counter [5] $end
$var wire 1 {# s_counter [4] $end
$var wire 1 |# s_counter [3] $end
$var wire 1 }# s_counter [2] $end
$var wire 1 ~# s_counter [1] $end
$var wire 1 !$ s_counter [0] $end
$upscope $end
$upscope $end
$enddefinitions $end
#0
$dumpvars
0!
0"
0C
1D
xE
1F
1G
1H
1I
1J
1K
0L
0m
0n
0o
1p
1q
0r
0s
1t
0u
0v
0w
1x
0y
0z
0{
1|
1}
1~
1!!
0"!
0#!
0$!
0%!
0&!
0'!
0(!
0)!
1*!
0+!
1,!
0-!
0.!
0/!
10!
01!
02!
03!
04!
15!
06!
17!
08!
09!
0:!
1;!
0<!
0=!
0>!
0?!
0@!
1A!
0B!
1C!
0D!
0E!
0F!
1G!
0H!
0I!
0J!
0K!
1L!
0M!
1N!
0O!
0P!
0Q!
1R!
0S!
0T!
0U!
0V!
1W!
0X!
1Y!
0Z!
0[!
0\!
1]!
0^!
0_!
0`!
0a!
1b!
0c!
1d!
0e!
0f!
0g!
1h!
1i!
0j!
0k!
0l!
0m!
1n!
0o!
1p!
0q!
0r!
0s!
1t!
0u!
0v!
0w!
0x!
1y!
0z!
1{!
0|!
0}!
0~!
1!"
0""
0#"
0$"
0%"
1&"
0'"
1("
0)"
0*"
0+"
1,"
0-"
0."
0/"
00"
11"
02"
13"
04"
05"
06"
17"
18"
09"
0:"
0;"
0<"
1="
0>"
1?"
0@"
0A"
0B"
1C"
0D"
0E"
0F"
0G"
1H"
0I"
1J"
0K"
0L"
0M"
1N"
0O"
0P"
0Q"
0R"
1S"
0T"
1U"
0V"
0W"
0X"
1Y"
0Z"
0["
0\"
0]"
1^"
0_"
1`"
0a"
0b"
0c"
1d"
1e"
0f"
0g"
0h"
1i"
1j"
0k"
1l"
1m"
0n"
0o"
1p"
0q"
1r"
0s"
0t"
1u"
0v"
1w"
0x"
0y"
1z"
0{"
0|"
1}"
0~"
0!#
1"#
0##
1$#
0%#
0&#
1'#
0(#
1)#
0*#
0+#
1,#
0-#
1.#
0/#
00#
11#
12#
03#
14#
05#
06#
17#
08#
19#
0:#
0;#
1<#
0=#
1>#
0?#
0@#
1A#
0B#
1C#
0D#
0E#
1F#
1G#
0H#
1I#
0J#
0K#
1L#
0M#
1N#
0O#
0P#
1Q#
0R#
1S#
0T#
0U#
1V#
0W#
1X#
0Y#
0Z#
1[#
1\#
0]#
0^#
0_#
0#
0$
0%
0&
0'
0(
0)
0*
0+
0,
0-
0.
0/
00
01
02
03
04
05
06
07
08
09
0:
0;
0<
0=
0>
1?
0@
0A
1B
0M
0N
0O
0P
0Q
0R
0S
0T
0U
0V
0W
0X
0Y
0Z
0[
0\
0]
0^
0_
0`
0a
0b
0c
0d
0e
0f
0g
0h
1i
0j
0k
1l
0`#
0a#
0b#
0c#
0d#
0e#
0f#
0g#
0h#
0i#
0j#
0k#
0l#
0m#
0n#
0o#
0p#
0q#
0r#
0s#
0t#
0u#
0v#
0w#
0x#
0y#
0z#
0{#
0|#
0}#
0~#
0!$
$end
#10000
1!
1L
1o
1!$
0p
1v
0x
1w
#20000
0!
0L
0o
#30000
1!
1L
1o
1~#
0!$
1p
0v
0w
0!!
1"!
1w
1!!
0"!
#40000
0!
0L
0o
#50000
1!
1L
1o
1!$
0p
1v
1k"
1{"
0w
0!!
1"!
1]#
1^#
#60000
0!
0L
0o
#70000
1!
1L
1o
0~#
1}#
0!$
1_#
1p
0v
0"!
1#!
0p"
1w
1!!
1x
0k"
1"!
0#!
0{"
1$!
0w
1n
0]#
0$!
1m
1"
#80000
0!
0L
0o
#90000
1!
1L
1o
1!$
0p
1v
0x
1w
#100000
0!
0L
0o
#110000
1!
1L
1o
1~#
0!$
1p
0v
0w
0!!
0"!
1#!
1w
1!!
1"!
0#!
1$!
0$!
#120000
0!
0L
0o
#130000
1!
1L
1o
1!$
0p
1v
1k"
0w
0!!
0"!
1#!
1$!
#140000
0!
0L
0o
#150000
1!
1L
1o
0~#
0}#
1|#
0!$
1p
0v
0$!
0,!
1"!
0#!
1%!
1w
1!!
1x
0k"
0"!
1<!
1$!
1,!
1-!
0w
0-!
1f"
1g"
0^#
#160000
0!
0L
0o
#170000
1!
1L
1o
0|#
0_#
0$!
0%!
1p"
0<!
0n
0f"
0m
0"
0g"
#180000
0!
0L
0o
#190000
1!
1L
1o
1!$
0p
1v
0x
1w
#200000
0!
0L
0o
#210000
1!
1L
1o
1~#
0!$
1p
0v
0w
0!!
1"!
1w
1!!
0"!
#220000
0!
0L
0o
#230000
1!
1L
1o
1!$
0p
1v
1k"
1{"
0w
0!!
1"!
1]#
1^#
#240000
0!
0L
0o
#250000
1!
1L
1o
0~#
1}#
0!$
1_#
1p
0v
0"!
1#!
0p"
1w
1!!
1x
0k"
1"!
0#!
0{"
1$!
0w
1n
0]#
0$!
1m
1"
#260000
0!
0L
0o
#270000
1!
1L
1o
1!$
0p
1v
0x
1w
#280000
0!
0L
0o
#290000
1!
1L
1o
1~#
0!$
1p
0v
0w
0!!
0"!
1#!
1w
1!!
1"!
0#!
1$!
0$!
#300000
0!
0L
0o
#310000
1!
1L
1o
1!$
0p
1v
1k"
0w
0!!
0"!
1#!
1$!
#320000
0!
0L
0o
#330000
1!
1L
1o
0~#
0}#
1|#
0!$
1p
0v
0$!
0,!
1"!
0#!
1%!
1w
1!!
1x
0k"
0"!
1<!
1$!
1,!
1-!
0w
0-!
1f"
1g"
0^#
#340000
0!
0L
0o
#350000
1!
1L
1o
0|#
0_#
0$!
0%!
1p"
0<!
0n
0f"
0m
0"
0g"
#360000
0!
0L
0o
#370000
1!
1L
1o
1!$
0p
1v
0x
1w
#380000
0!
0L
0o
#390000
1!
1L
1o
1~#
0!$
1p
0v
0w
0!!
1"!
1w
1!!
0"!
#400000
0!
0L
0o
#410000
1!
1L
1o
1!$
0p
1v
1k"
1{"
0w
0!!
1"!
1]#
1^#
#420000
0!
0L
0o
#430000
1!
1L
1o
0~#
1}#
0!$
1_#
1p
0v
0"!
1#!
0p"
1w
1!!
1x
0k"
1"!
0#!
0{"
1$!
0w
1n
0]#
0$!
1m
1"
#440000
0!
0L
0o
#450000
1!
1L
1o
1!$
0p
1v
0x
1w
#460000
0!
0L
0o
#470000
1!
1L
1o
1~#
0!$
1p
0v
0w
0!!
0"!
1#!
1w
1!!
1"!
0#!
1$!
0$!
#480000
0!
0L
0o
#490000
1!
1L
1o
1!$
0p
1v
1k"
0w
0!!
0"!
1#!
1$!
#500000
0!
0L
0o
#510000
1!
1L
1o
0~#
0}#
1|#
0!$
1p
0v
0$!
0,!
1"!
0#!
1%!
1w
1!!
1x
0k"
0"!
1<!
1$!
1,!
1-!
0w
0-!
1f"
1g"
0^#
#520000
0!
0L
0o
#530000
1!
1L
1o
0|#
0_#
0$!
0%!
1p"
0<!
0n
0f"
0m
0"
0g"
#540000
0!
0L
0o
#550000
1!
1L
1o
1!$
0p
1v
0x
1w
#560000
0!
0L
0o
#570000
1!
1L
1o
1~#
0!$
1p
0v
0w
0!!
1"!
1w
1!!
0"!
#580000
0!
0L
0o
#590000
1!
1L
1o
1!$
0p
1v
1k"
1{"
0w
0!!
1"!
1]#
1^#
#600000
0!
0L
0o
#610000
1!
1L
1o
0~#
1}#
0!$
1_#
1p
0v
0"!
1#!
0p"
1w
1!!
1x
0k"
1"!
0#!
0{"
1$!
0w
1n
0]#
0$!
1m
1"
#620000
0!
0L
0o
#630000
1!
1L
1o
1!$
0p
1v
0x
1w
#640000
0!
0L
0o
#650000
1!
1L
1o
1~#
0!$
1p
0v
0w
0!!
0"!
1#!
1w
1!!
1"!
0#!
1$!
0$!
#660000
0!
0L
0o
#670000
1!
1L
1o
1!$
0p
1v
1k"
0w
0!!
0"!
1#!
1$!
#680000
0!
0L
0o
#690000
1!
1L
1o
0~#
0}#
1|#
0!$
1p
0v
0$!
0,!
1"!
0#!
1%!
1w
1!!
1x
0k"
0"!
1<!
1$!
1,!
1-!
0w
0-!
1f"
1g"
0^#
#700000
0!
0L
0o
#710000
1!
1L
1o
0|#
0_#
0$!
0%!
1p"
0<!
0n
0f"
0m
0"
0g"
#720000
0!
0L
0o
#730000
1!
1L
1o
1!$
0p
1v
0x
1w
#740000
0!
0L
0o
#750000
1!
1L
1o
1~#
0!$
1p
0v
0w
0!!
1"!
1w
1!!
0"!
#760000
0!
0L
0o
#770000
1!
1L
1o
1!$
0p
1v
1k"
1{"
0w
0!!
1"!
1]#
1^#
#780000
0!
0L
0o
#790000
1!
1L
1o
0~#
1}#
0!$
1_#
1p
0v
0"!
1#!
0p"
1w
1!!
1x
0k"
1"!
0#!
0{"
1$!
0w
1n
0]#
0$!
1m
1"
#800000
0!
0L
0o
#810000
1!
1L
1o
1!$
0p
1v
0x
1w
#820000
0!
0L
0o
#830000
1!
1L
1o
1~#
0!$
1p
0v
0w
0!!
0"!
1#!
1w
1!!
1"!
0#!
1$!
0$!
#840000
0!
0L
0o
#850000
1!
1L
1o
1!$
0p
1v
1k"
0w
0!!
0"!
1#!
1$!
#860000
0!
0L
0o
#870000
1!
1L
1o
0~#
0}#
1|#
0!$
1p
0v
0$!
0,!
1"!
0#!
1%!
1w
1!!
1x
0k"
0"!
1<!
1$!
1,!
1-!
0w
0-!
1f"
1g"
0^#
#880000
0!
0L
0o
#890000
1!
1L
1o
0|#
0_#
0$!
0%!
1p"
0<!
0n
0f"
0m
0"
0g"
#900000
0!
0L
0o
#910000
1!
1L
1o
1!$
0p
1v
0x
1w
#920000
0!
0L
0o
#930000
1!
1L
1o
1~#
0!$
1p
0v
0w
0!!
1"!
1w
1!!
0"!
#940000
0!
0L
0o
#950000
1!
1L
1o
1!$
0p
1v
1k"
1{"
0w
0!!
1"!
1]#
1^#
#960000
0!
0L
0o
#970000
1!
1L
1o
0~#
1}#
0!$
1_#
1p
0v
0"!
1#!
0p"
1w
1!!
1x
0k"
1"!
0#!
0{"
1$!
0w
1n
0]#
0$!
1m
1"
#980000
0!
0L
0o
#990000
1!
1L
1o
1!$
0p
1v
0x
1w
